<?xml version="1.0" encoding="utf-8"?>
<!-- Generator: Adobe Illustrator 23.0.4, SVG Export Plug-In . SVG Version: 6.00 Build 0)  -->
<svg version="1.1" id="Layer_1" xmlns="http://www.w3.org/2000/svg" xmlns:xlink="http://www.w3.org/1999/xlink" x="0px" y="0px"
	 viewBox="0 0 305.05 56" style="enable-background:new 0 0 305.05 56;" xml:space="preserve">
<style type="text/css">
	.st0{fill:#F1F1F1;}
	.st1{fill:#8ED3E3;}
	.st2{clip-path:url(#SVGID_2_);}
	.st3{clip-path:url(#SVGID_4_);}
	.st4{clip-path:url(#SVGID_8_);}
	.st5{clip-path:url(#SVGID_10_);}
	.st6{clip-path:url(#SVGID_14_);}
	.st7{clip-path:url(#SVGID_18_);}
	.st8{fill:#FFFFFF;}
	.st9{clip-path:url(#SVGID_22_);}
	.st10{clip-path:url(#SVGID_24_);}
	.st11{clip-path:url(#SVGID_28_);}
	.st12{clip-path:url(#SVGID_30_);}
	.st13{clip-path:url(#SVGID_34_);}
	.st14{clip-path:url(#SVGID_36_);}
	.st15{clip-path:url(#SVGID_40_);}
	.st16{fill:none;stroke:#FFFFFF;stroke-width:0.5761;}
	.st17{fill:#1D1D1B;}
	.st18{clip-path:url(#SVGID_44_);}
	.st19{filter:url(#Adobe_OpacityMaskFilter);}
	.st20{mask:url(#SVGID_47_);}
	.st21{opacity:0.75;clip-path:url(#SVGID_51_);fill:#1D1D1B;}
	.st22{clip-path:url(#SVGID_53_);fill:#C2C7CB;}
	.st23{clip-path:url(#SVGID_55_);}
	.st24{clip-path:url(#SVGID_57_);}
	.st25{fill:none;stroke:#B0B0B0;stroke-miterlimit:10;}
	.st26{clip-path:url(#SVGID_61_);fill:#FFBC1A;}
	.st27{clip-path:url(#SVGID_63_);fill:#E2175A;}
	.st28{clip-path:url(#SVGID_65_);fill:#571833;}
	.st29{clip-path:url(#SVGID_67_);fill:#8ED3E3;}
	.st30{clip-path:url(#SVGID_69_);}
	.st31{clip-path:url(#SVGID_73_);fill:#C2C7CB;}
	.st32{clip-path:url(#SVGID_73_);fill:#FFFFFF;}
	.st33{clip-path:url(#SVGID_75_);}
	.st34{clip-path:url(#SVGID_77_);}
	.st35{fill:#35D7B3;}
	.st36{clip-path:url(#SVGID_83_);}
	.st37{fill:none;}
	.st38{clip-path:url(#SVGID_91_);}
	.st39{clip-path:url(#SVGID_93_);}
	.st40{fill:#E2175A;}
	.st41{fill:none;stroke:#FFFFFF;stroke-width:0.3909;stroke-miterlimit:10;}
	.st42{fill:none;stroke:#E41D60;stroke-width:0.2982;stroke-miterlimit:10;}
	.st43{fill:#E41D60;}
	.st44{fill:#FFBC1A;}
	.st45{fill:#E41D60;stroke:#E41D60;stroke-width:0.5;stroke-miterlimit:10;}
	.st46{fill:none;stroke:#571833;stroke-width:2.531;stroke-linecap:round;stroke-linejoin:round;stroke-miterlimit:10;}
	.st47{fill:#571833;}
	.st48{fill:none;stroke:#EA0045;stroke-width:2;stroke-linecap:round;stroke-linejoin:round;stroke-miterlimit:10;}
	.st49{fill:#EA0045;}
	.st50{fill:none;stroke:#FFFFFF;stroke-width:4;stroke-linecap:round;stroke-miterlimit:10;}
	.st51{fill:none;stroke:#FFFFFF;stroke-width:2;stroke-linecap:round;stroke-miterlimit:10;}
	.st52{fill:#70BCA6;}
	.st53{fill:#262636;}
	.st54{fill:#621F87;}
	.st55{fill:#74C182;}
	.st56{fill:#D35A52;}
	.st57{fill:#E58457;}
	.st58{fill:#DCE6E5;}
	.st59{fill:#75D3B5;}
	.st60{fill:#5BA594;}
	.st61{fill:#C8D5D8;}
	.st62{fill:#506D79;}
	.st63{fill:#B7C4C6;}
	.st64{fill:#67BA9F;}
	.st65{fill:#4C6073;}
	.st66{fill:none;stroke:#575756;stroke-width:1.9577;stroke-linecap:round;stroke-linejoin:round;stroke-miterlimit:10;}
	.st67{fill:#EBEBEB;}
	.st68{fill:none;stroke:#B0B0B0;stroke-width:2;stroke-linecap:round;stroke-linejoin:round;stroke-miterlimit:10;}
	.st69{fill:#E2165A;}
	.st70{fill:none;stroke:#571833;stroke-width:2.5138;stroke-miterlimit:10;}
	.st71{fill:none;stroke:#E2165A;stroke-width:1.866;stroke-linecap:round;stroke-linejoin:round;stroke-miterlimit:10;}
	.st72{fill:none;stroke:#E2165A;stroke-width:2.1723;stroke-linecap:round;stroke-linejoin:round;stroke-miterlimit:10;}
	.st73{fill:none;stroke:#000000;stroke-width:2.1723;stroke-miterlimit:10;}
	.st74{fill:none;stroke:#E2165A;stroke-width:1.9068;stroke-linecap:round;stroke-linejoin:round;stroke-miterlimit:10;}
	.st75{clip-path:url(#SVGID_99_);}
	.st76{fill:#212121;}
	.st77{fill:none;stroke:#FFFFFF;stroke-miterlimit:10;}
	.st78{fill:#002F65;}
	.st79{fill:#48AA43;}
	.st80{fill:none;stroke:#E2165A;stroke-width:2.9789;stroke-linecap:round;stroke-linejoin:round;stroke-miterlimit:10;}
	.st81{fill:none;stroke:#E2165A;stroke-width:2.3368;stroke-linecap:round;stroke-linejoin:round;stroke-miterlimit:10;}
	.st82{fill:none;stroke:#E2165A;stroke-width:2.7204;stroke-linecap:round;stroke-linejoin:round;stroke-miterlimit:10;}
	.st83{fill:none;stroke:#E2165A;stroke-width:2.3879;stroke-linecap:round;stroke-linejoin:round;stroke-miterlimit:10;}
	.st84{fill:none;stroke:#E2165A;stroke-width:1.8421;stroke-linecap:round;stroke-linejoin:round;stroke-miterlimit:10;}
	.st85{fill:#FFFFFF;stroke:#571833;stroke-width:2.8983;stroke-miterlimit:10;}
	.st86{fill:none;stroke:#571833;stroke-width:3.1481;stroke-miterlimit:10;}
	.st87{fill:none;stroke:#000000;stroke-width:2.7204;stroke-miterlimit:10;}
	.st88{clip-path:url(#SVGID_103_);}
	.st89{clip-path:url(#SVGID_105_);}
	.st90{fill:#B2C9D9;}
	.st91{fill:#00417B;}
	.st92{fill:none;stroke:#EB0045;stroke-width:2;stroke-linecap:round;stroke-linejoin:round;stroke-miterlimit:10;}
	.st93{fill:none;stroke:#FFFFFF;stroke-width:4;stroke-linecap:round;stroke-linejoin:round;stroke-miterlimit:10;}
	.st94{fill:#5CB2B2;}
	.st95{fill:none;stroke:#FFFFFF;stroke-width:2.2323;stroke-linecap:round;stroke-miterlimit:10;}
	.st96{fill:none;stroke:#EA0045;stroke-width:2;stroke-miterlimit:10;}
	.st97{fill:none;stroke:#EA0045;stroke-width:2.3277;stroke-linecap:round;stroke-linejoin:round;stroke-miterlimit:10;}
	.st98{fill:none;stroke:#EA0045;stroke-width:1.9198;stroke-linecap:round;stroke-linejoin:round;stroke-miterlimit:10;}
	.st99{fill:none;stroke:#EA0045;stroke-width:1.8057;stroke-linecap:round;stroke-linejoin:round;stroke-miterlimit:10;}
	.st100{fill:none;stroke:#EA0045;stroke-width:2.2836;stroke-linecap:round;stroke-linejoin:round;stroke-miterlimit:10;}
	.st101{fill:none;stroke:#E2165A;stroke-width:3.734;stroke-linecap:round;stroke-linejoin:round;stroke-miterlimit:10;}
	.st102{fill:none;stroke:#E2165A;stroke-width:4.3469;stroke-linecap:round;stroke-linejoin:round;stroke-miterlimit:10;}
	.st103{fill:none;stroke:#000000;stroke-width:4.2638;stroke-miterlimit:10;}
	.st104{fill:none;stroke:#571833;stroke-width:4.3412;stroke-miterlimit:10;}
	.st105{fill:#FFFFFF;stroke:#571833;stroke-width:4.3412;stroke-miterlimit:10;}
	.st106{fill:none;stroke:#571833;stroke-width:4.3957;stroke-linecap:round;stroke-linejoin:round;stroke-miterlimit:10;}
	.st107{fill:none;stroke:#FFBC1A;stroke-width:3.655;stroke-linecap:round;stroke-linejoin:round;stroke-miterlimit:10;}
	.st108{fill:none;stroke:#FFBC1A;stroke-width:3.4496;stroke-linecap:round;stroke-linejoin:round;stroke-miterlimit:10;}
	.st109{fill:none;stroke:#000000;stroke-width:4.1579;stroke-miterlimit:10;}
	.st110{fill:none;stroke:#000000;stroke-width:4.3469;stroke-miterlimit:10;}
	.st111{fill:#FFFFFF;stroke:#000000;stroke-width:2.1734;stroke-miterlimit:10;}
	.st112{fill:none;stroke:#571833;stroke-width:4.3469;stroke-linecap:round;stroke-linejoin:round;stroke-miterlimit:10;}
	.st113{fill:none;stroke:#571833;stroke-width:4.3469;stroke-linecap:round;stroke-miterlimit:10;}
	.st114{fill:none;stroke:#571833;stroke-width:4.3469;stroke-miterlimit:10;}
	.st115{fill:#FFFFFF;stroke:#571833;stroke-width:4.3469;stroke-miterlimit:10;}
	.st116{fill:#FFFFFF;stroke:#571833;stroke-width:2.1734;stroke-linecap:round;stroke-miterlimit:10;}
	.st117{fill:none;stroke:#571833;stroke-width:3.2602;stroke-linecap:round;stroke-miterlimit:10;}
	.st118{fill:none;stroke:#FFBC1A;stroke-width:6.024;stroke-linecap:round;stroke-linejoin:round;stroke-miterlimit:10;}
	.st119{fill:none;stroke:#FFBC1A;stroke-width:3.5192;stroke-linecap:round;stroke-linejoin:round;stroke-miterlimit:10;}
	.st120{fill:none;stroke:#EA0045;stroke-width:2.531;stroke-linecap:round;stroke-linejoin:round;stroke-miterlimit:10;}
	.st121{fill:none;stroke:#E2165A;stroke-width:2.4189;stroke-linecap:round;stroke-linejoin:round;stroke-miterlimit:10;}
	.st122{fill:none;stroke:#E2165A;stroke-width:2.8159;stroke-linecap:round;stroke-linejoin:round;stroke-miterlimit:10;}
	.st123{fill:none;stroke:#E2165A;stroke-width:2.4718;stroke-linecap:round;stroke-linejoin:round;stroke-miterlimit:10;}
	.st124{fill:#FFFFFF;stroke:#571833;stroke-width:3;stroke-miterlimit:10;}
	.st125{fill:none;stroke:#571833;stroke-width:3.2586;stroke-miterlimit:10;}
	.st126{fill:none;stroke:#000000;stroke-width:2.8159;stroke-miterlimit:10;}
	.st127{fill:none;stroke:#571833;stroke-width:3.2586;stroke-linecap:round;stroke-linejoin:round;stroke-miterlimit:10;}
	.st128{fill:#FFFFFF;stroke:#FFBC1A;stroke-width:2.4804;stroke-linecap:round;stroke-linejoin:round;stroke-miterlimit:10;}
	.st129{fill:none;stroke:#571833;stroke-width:2.9938;stroke-linecap:round;stroke-linejoin:round;stroke-miterlimit:10;}
	.st130{fill:#FFFFFF;stroke:#571833;stroke-width:2.9938;stroke-linecap:round;stroke-linejoin:round;stroke-miterlimit:10;}
	.st131{fill:none;stroke:#571833;stroke-width:3.6163;stroke-linecap:round;stroke-linejoin:round;stroke-miterlimit:10;}
	.st132{fill:#FFFFFF;stroke:#571833;stroke-width:2.0812;stroke-linecap:round;stroke-linejoin:round;stroke-miterlimit:10;}
	.st133{fill:none;stroke:#571833;stroke-width:2.0812;stroke-linecap:round;stroke-linejoin:round;stroke-miterlimit:10;}
	.st134{fill:none;stroke:#571833;stroke-width:4.7006;stroke-miterlimit:10;}
	.st135{fill:none;stroke:#E2165A;stroke-width:3.4893;stroke-linecap:round;stroke-linejoin:round;stroke-miterlimit:10;}
	.st136{fill:none;stroke:#E2165A;stroke-width:4.062;stroke-linecap:round;stroke-linejoin:round;stroke-miterlimit:10;}
	.st137{fill:none;stroke:#E2165A;stroke-width:3.5656;stroke-linecap:round;stroke-linejoin:round;stroke-miterlimit:10;}
	.st138{fill:none;stroke:#000000;stroke-width:4.062;stroke-miterlimit:10;}
	.st139{fill:#FFFFFF;stroke:#571833;stroke-width:3.0022;stroke-linecap:round;stroke-linejoin:round;stroke-miterlimit:10;}
	.st140{fill:none;stroke:#FFBC1A;stroke-width:3.4159;stroke-linecap:round;stroke-linejoin:round;stroke-miterlimit:10;}
	.st141{fill:none;stroke:#EA0045;stroke-width:2.4784;stroke-linecap:round;stroke-linejoin:round;stroke-miterlimit:10;}
	
		.st142{fill:none;stroke:#EA0045;stroke-width:2.4784;stroke-linecap:round;stroke-linejoin:round;stroke-miterlimit:10;stroke-dasharray:6.1961,6.1961;}
	.st143{fill-rule:evenodd;clip-rule:evenodd;fill:#1D1D1B;}
	.st144{fill-rule:evenodd;clip-rule:evenodd;fill:#FFFFFF;}
	.st145{clip-path:url(#SVGID_107_);}
	.st146{fill:#E41C29;}
	.st147{fill:#110F0D;}
	.st148{fill:#006F94;}
</style>
<path class="st143" d="M152.01,29.37l0.83,0.62c-0.1-0.93,0.05-2.48,0.05-2.48c-0.62,0.41-0.77,1.19-0.77,1.19l-0.88,0.1
	L152.01,29.37L152.01,29.37z M185.81,36.08c-0.1-0.21-0.26-0.36-0.52-0.36s-0.52,0.26-0.52,0.62c0,0.36,0.26,0.62,0.52,0.62
	c0.31,0,0.57-0.26,0.57-0.62C185.86,36.23,185.81,36.18,185.81,36.08L185.81,36.08z M185.79,33.65c0.01,0.05,0.02,0.1,0.02,0.15
	c0,0.25-0.16,0.49-0.41,0.58v0.76c0.31,0.03,0.54,0.18,0.72,0.41c0.15,0.21,0.26,0.46,0.26,0.77c0,0.56-0.32,1-0.78,1.14
	c1.27-0.1,2.07-0.21,2.07-0.21c-1.24-0.26-0.52-0.98-0.52-0.98c0.57-0.46,1.65-0.83,1.65-0.83c-1.29-0.15-2.01-1.19-2.32-1.81
	H185.79L185.79,33.65z M185.14,37.51c-0.5-0.08-0.88-0.56-0.88-1.17c0-0.59,0.36-1.06,0.83-1.16v-0.75c-0.3-0.05-0.54-0.3-0.57-0.56
	l0,0c-0.52,0.15-0.98,0.15-0.98,0.15c-0.1,0.26,0.1,0.36,0.1,0.36c1.08,0.77,0.36,1.5,0.36,1.5c-0.52,0.46-0.77,0.46-0.77,0.46
	c-0.52,0.15-1.75,1.24-1.75,1.24C182.85,37.62,184.12,37.57,185.14,37.51L185.14,37.51z M171,32.72c0.1,0,0.19-0.03,0.26-0.08
	l1.03,0.44c0,0.31,0.21,0.57,0.46,0.57c0.16,0,0.3-0.1,0.38-0.25l0.88,0.12c0.06,0.26,0.23,0.43,0.44,0.43
	c0.24,0,0.47-0.22,0.51-0.54l0.73-0.35c0.08,0.13,0.21,0.21,0.36,0.21c0.26,0,0.52-0.26,0.52-0.57l0.46-0.77
	c1.33,0.12,2.63-0.05,2.63-0.05c1.39-0.72,2.53-1.14,2.53-1.14c-0.41,0.31-0.83,0.57-1.08,0.88c-0.46,0.46-0.72,0.83-0.72,0.83
	c-0.46,0.36-0.57,0.77-0.57,1.19c0.05,0.46,0.31,0.83,0.31,0.83c0.26,0.31,0.62,0.46,0.62,0.46l0.57,0.52
	c-0.46,0.36-1.5,0.62-1.5,0.62c-0.57,0.21-1.34-0.15-1.34-0.15c-1.81-0.41-2.43,0.41-2.43,0.41c-0.36,0.41-1.03,0.46-1.03,0.46
	l0.31,0.46c-0.67,0.21-1.03-0.05-1.03-0.05c-0.05-0.88,0.41-1.75,0.41-1.75c-0.21-1.39-3.1-1.14-3.1-1.14l-0.72-0.67l-0.15-0.15
	l-1.65-1.55c0,0.46-0.21,1.14-0.46,1.7c-0.21,0.46-0.46,0.88-0.46,0.88l-0.62-0.31c0.1-0.15,0.21-0.36,0.26-0.57
	c0.52-1.24,0.88-2.99,0.88-2.99c0.31,0,0.57,0.05,0.77,0.1c0.15,0.1,0.26,0.15,0.26,0.15c0.12,0.06,0.25,0.11,0.39,0.17l0.57,0.81
	c-0.05,0.09-0.08,0.2-0.08,0.31C170.58,32.52,170.74,32.72,171,32.72L171,32.72z M176.76,31.92l-0.3,0.43
	c-0.1-0.15-0.25-0.24-0.41-0.24c-0.26,0-0.46,0.26-0.46,0.62c0,0.05,0,0.1,0.01,0.14l-0.66,0.31c-0.07-0.25-0.28-0.45-0.49-0.45
	c-0.26,0-0.46,0.31-0.46,0.62l-0.79-0.14c0.01-0.04,0.01-0.08,0.01-0.12c0-0.31-0.21-0.62-0.46-0.62c-0.19,0-0.35,0.17-0.43,0.38
	l-0.91-0.41c0.03-0.07,0.04-0.15,0.04-0.23c0-0.26-0.21-0.52-0.46-0.52c-0.04,0-0.08,0.01-0.12,0.02l-0.24-0.43l-0.01,0
	c1.32,0.43,2.95,0.73,2.95,0.73h1.14l0.36-0.57C175.54,31.7,176.14,31.85,176.76,31.92L176.76,31.92z M170.64,23.11
	c0.04,0.05,0.08,0.1,0.12,0.14l-0.06,0.12c-0.04-0.02-0.08-0.04-0.12-0.04c-0.21,0-0.36,0.21-0.36,0.41l-0.05-0.05l-0.41-0.46
	l-0.15-0.15l-0.93-0.98c-1.08-1.44-2.73,0-2.73,0l-0.26-0.21c0.88-0.52,0.1-1.19,0.1-1.19l1.7-4.39l-0.46-0.57
	c0.83-1.7-0.93-1.75-0.93-1.75c-0.52-1.55-1.44-0.83-1.44-0.83c-0.31-1.5-1.44-0.72-1.44-0.72c-0.41-1.03-1.39-0.41-1.39-0.41
	l0.05-2.43l-1.14,0.05l-1.24-0.05l0.1,2.48c-1.24-0.62-1.44,0.62-1.44,0.62c-1.44-0.83-1.44,0.77-1.44,0.77
	c-1.19-0.36-1.14,0.77-1.14,0.77c-1.6,0.15-1.39,1.55-1.39,1.55l1.24,4.23c-0.31,0.77-3.97,5.26-3.97,5.26l-1.55-0.46l-0.1-0.26
	c0.36,0.21,0.62,0.1,0.62,0.1c-0.15-0.52,0.05-1.55,0.05-1.55c0.46-2.01-0.36-2.73-0.36-2.73c0.05-0.83-0.52-1.81-0.52-1.81
	c0.77-0.98-0.36-1.96-0.36-1.96l-0.15-0.26l-0.05-2.12c-0.21,0-0.31-0.26-0.31-0.26c-0.31-0.88-0.88-0.31-0.88-0.31
	c-0.41-0.93-1.08-0.21-1.08-0.21c-0.57-0.77-1.14,0-1.14,0l-0.46-1.5l-1.55,0.62l0.52,1.65c-1.14-0.26-0.77,0.88-0.77,0.88
	c-0.98,0.05-0.52,0.93-0.52,0.93c-0.93,0.1-0.57,1.14-0.57,1.14l1.03,1.7c-0.83,0.93-0.05,1.55-0.05,1.55
	c0.26,0.46,0.57,0.46,0.57,0.46c-0.46,1.39,0.15,2.84,0.15,2.84c-0.67,0.77-1.65,1.39-2.53,1.86c-1.29,0.62-2.43,0.93-2.43,0.93
	c-2.01,0.46-5.99,1.75-5.99,1.75c-1.39,0.36-3.61,1.03-3.61,1.03c-2.79,0.83-3.51-0.05-3.51-0.05c-0.67-0.41-0.15-1.5-0.15-1.5
	c0.67-1.34,2.06-1.65,2.06-1.65c0.98,0.62,1.34,0.98,1.34,0.98c0.62,0.62,1.7,0.57,1.7,0.57l0.05-0.21c0.46,0.05,0.77-0.1,0.77-0.1
	c-0.31-0.31-0.31-0.67-0.31-0.67c0-0.26-0.36-0.67-0.36-0.67l7.17-0.31c0.26-0.05,0.46-0.05,0.67-0.1c2.48-0.46,3.04-1.03,3.04-1.03
	c1.7-1.34,0.98-3.56,0.98-3.56c-0.93-2.17-2.73-2.27-2.73-2.27c-1.39-0.36-2.43-0.15-2.43-0.15c-0.77,0.05-2.37-0.36-2.37-0.36
	c-0.05,0.31,0.62,1.29,0.62,1.29c-0.83,0.05-1.29-0.41-1.29-0.41c-0.83-0.77-2.17-0.41-2.17-0.41c0.21,0.41,1.44,1.44,1.44,1.44
	c-0.72,0.05-2.68-0.77-2.68-0.77c0.36,1.7,2.32,2.89,2.32,2.89c2.32,0.98,4.33-0.05,4.33-0.05c0.98-0.62,1.96-0.98,1.96-0.98
	c1.24-0.41,1.55,0.72,1.55,0.72c-0.1,1.75-1.39,1.81-1.39,1.81c-3.72,0.77-8.67,0.26-8.67,0.26c0.36-0.46,0.41-1.65,0.41-1.65
	l-0.41,0.1c-2.17-0.21-2.73,0.26-2.73,0.26c-0.77,0.46-1.14,1.44-1.14,1.44c-0.98,0.41-1.75,0.93-2.32,1.44
	c-1.44,1.39-1.6,2.94-1.6,2.94c-0.1,1.86,0.93,2.12,0.93,2.12c-0.93,1.81,0.46,2.48,0.46,2.48c0.62-0.46,0.88-0.98,0.88-0.98
	c1.24-0.93,4.85-1.7,4.85-1.7c-0.72,0.57-1.14,2.27-1.14,2.27c-0.62,0.21-1.65-0.15-1.65-0.15c-0.57-0.05-0.57,0.41-0.57,0.41
	l-0.26,0.62l-0.36,1.14c-2.22-0.1-1.91,1.19-1.91,1.19l-0.31,3.46c0.52,1.29,1.34,1.08,1.34,1.08v-1.29h0.57
	c0.67,1.39,1.7,1.7,1.7,1.7h0.31c0.36-0.1,0.52,0.41,0.52,0.41l0.36,0.05l0.05-0.88l0.41-0.05c0.26,0.1,0.41,0.52,0.41,0.52h0.31
	c0.1-0.21,0.15-0.77,0.15-0.77c0.41-0.26,0.31-1.19,0.31-1.19c0.83-0.15,1.7,0.15,1.7,0.15l-0.05,0.77
	c0.62,1.03,1.39,1.19,1.39,1.19c0.52,0.15,1.29,0.26,2.22,0.31c1.6,0.1,3.61,0.05,5.47,0c3.2-0.15,6.04-0.46,6.04-0.46
	c0.21,0.31,0.31,0.26,0.31,0.26c0.88,0.31,1.86-0.62,1.86-0.62l-0.31,0.62c0.67-0.05,1.39-0.52,1.39-0.52
	c0.31,0.41,0.72,0.52,0.72,0.52l0.15-0.15l0.21,0.31c0.41-0.21,0.67-0.93,0.67-0.93c0.46,0.41,1.14,0.31,1.14,0.31l0.21,0.31
	l0.15-0.26c0.31,0.21,0.88,0.46,0.88,0.46c0.62-0.77,0.36-1.91,0.36-1.91l0.15,0.26l0.15-0.62c0.31,0.31,0.83,0.31,0.83,0.31
	c-0.98,0.41-0.41,1.14-0.41,1.14c0.15,0.31,0.52,0.46,0.52,0.46c0.62-0.05,0.72,0.52,0.72,0.52c0.77,0.36,1.24-0.46,1.24-0.46
	l0.1-0.62c-0.15-0.36-0.15-0.93-0.15-0.93l0.15,0.67l0.26,0.15l1.75,1.39l1.5-1.24c0.83,0.57,1.96,0.57,1.96,0.57
	c0.41,0,0.1-0.52,0.1-0.52c1.34,1.08,3.35,0.83,3.35,0.83c0.31-0.26,0.1-0.41,0.1-0.41c0.36-0.15,0.98,0.36,0.98,0.36
	c0.52,0.36,1.29,0.05,1.29,0.05c-0.05-0.26-0.31-0.31-0.31-0.31c0.36,0,0.15-0.52,0.15-0.52c0.36,0.05,0.67,0.46,0.67,0.46
	c0.31,0.41,0.88,0.31,0.88,0.31l0.05-0.26c0.36,0.26,1.19,0.31,1.19,0.31c0.21-0.21,0.05-0.52,0.05-0.52
	c3.72,1.14,9.24,0.93,9.24,0.93c7.17-0.05,8.15-1.44,8.15-1.44c0.26-0.31,0.1-0.67,0.1-0.67v-0.41c0.36-0.21,0.93-0.05,0.93-0.05
	l-0.52,1.08l-0.15,0.36c1.24,1.39,3.1-0.15,3.1-0.15V39.9c0.36-0.15,0.67-0.57,0.67-0.57l0.83,0.21c0.1,0.46-0.21,0.98-0.21,0.98
	c1.29,0.36,1.75-0.98,1.75-0.98l-0.67-3.46c-1.03-1.19-2.89-0.98-2.89-0.98l-0.05-0.88c-0.1-0.31-0.46-0.52-0.77-0.57l-0.4-0.14
	l-0.37,0.14c-0.57,0.05-1.39,0.05-1.39,0.05v-0.05l0.1-1.19v-1.34l-0.1-0.46l1.08,0.15c0.83,0.36,2.73,0.36,2.73,0.36
	c0.62,0.26,0.62,0.88,0.62,0.88l-0.21,0.72c1.75-0.15,1.55-2.12,1.55-2.12c1.24-1.03,0.93-3.82,0.93-3.82
	c-0.15-0.67-0.41-1.08-0.57-1.24c-0.05-0.05-0.05-0.05-0.05-0.05c0-1.75-1.75-2.53-1.75-2.53c-0.31-0.26-0.67-0.26-0.67-0.26
	c-0.41-0.1-0.98-0.77-0.98-0.77c-0.67,1.24-0.1,2.17-0.1,2.17c-1.03-0.21-6.19,0.83-6.19,0.83c-1.24,0.31-3.3-0.36-3.3-0.36
	c-1.29-0.72-1.08-1.65-1.08-1.65c0.26-1.5,1.5-1.29,1.5-1.29c0.21,0,0.36,0,0.36,0c1.08-0.21,1.86,0.21,1.86,0.21
	c2.17,1.03,6.04,0,6.04,0c1.86-0.72,2.37-3.15,2.37-3.15c-1.24,1.14-2.43,0.93-2.43,0.93c-0.31,0.05-0.77,0.21-0.77,0.21
	c0.21-0.88,1.24-1.29,1.24-1.29c-1.34-0.57-2.79,0.41-2.79,0.41c-0.72,0.77-2.32,1.03-2.32,1.03c1.19-0.46,1.81-1.75,1.81-1.75
	c-0.77,0.46-2.17,0.36-2.17,0.36c-2.12-0.41-4.44,1.5-4.44,1.5c-2.12,1.96-1.08,4.13-1.08,4.13c0.26,0.62,0.88,1.08,1.55,1.34
	c0.98,0.46,2.01,0.57,2.01,0.57c2.22,0.26,6.76-0.26,6.76-0.26c0.41-0.1,0.88-0.1,0.88-0.1c-0.83,0.62-0.98,2.01-0.98,2.01
	c0.83-0.31,1.44-0.31,1.44-0.31l-0.05,0.21c0.98-0.15,1.81,0,1.81,0c0.52,0.05,0.62-0.41,0.62-0.41c0.62,0.93-0.62,1.96-0.62,1.96
	c-0.72,0.72-2.32,0.15-2.32,0.15c-0.88-0.41-3.15-0.57-3.15-0.57c-0.41-0.52-5.11-1.44-5.11-1.44c-0.26-0.46-0.72-0.26-0.72-0.26
	l-0.41-0.05c-0.41-0.98-1.34-0.41-1.34-0.41c-0.67-0.1-1.75-0.72-2.37-1.08c-0.31-0.15-0.46-0.31-0.46-0.31
	c2.48-2.73,2.32-5.68,2.32-5.68c-0.31-4.23-3.77-4.9-3.77-4.9c-0.52-1.24-2.17-1.34-2.17-1.34l-0.1,0.26l0.15,0.36
	c-0.05,0.26,0.26,0.72,0.26,0.72l-0.67,0.15l-4.18-2.43c-1.03-0.26-0.62,0.62-0.62,0.62l0.21,0.31l3.61,2.84
	c-0.36,0.72-1.6,1.65-1.6,1.65l-0.46,0.1l-0.57,0.62l0.05,0.83c-0.26,0.21-0.83,0.21-0.83,0.21l-0.05,0.52
	c0.36,0.52,1.39,0.52,1.39,0.52l0.83,0.83c0.26,0.15,0.46-0.05,0.46-0.05l0.72-0.83l0.98-0.46c0.26,0.15,0.72,0.21,0.72,0.21
	c-0.67,0.26-1.39,1.24-1.39,1.24c-0.57-0.15-1.5,0.05-1.5,0.05l-0.1,0.57l-0.03,0.14l-0.23-0.14c-0.36-1.5-1.5-0.57-1.5-0.57
	C170.23,22.21,170.45,22.86,170.64,23.11L170.64,23.11z M170.67,24.19c0.12-0.06,0.23-0.23,0.23-0.44c0-0.06-0.01-0.12-0.03-0.17
	l0.07-0.17c0.21,0.16,0.42,0.2,0.57,0.2c0.53-0.02,0.74-0.78,0.74-0.78h0.13l-0.13,0.62c-0.52,0.31-0.98,1.34-0.98,1.34
	L170.67,24.19L170.67,24.19z M170.99,22.72c-0.28-0.57,0.32-0.83,0.32-0.83c0.72-0.1,0.57,0.83,0.57,0.83
	c-0.19,0.24-0.35,0.33-0.48,0.34C171.12,23.08,170.99,22.72,170.99,22.72L170.99,22.72z M142.82,33.6
	c-0.41,0.36-1.14,0.88-2.06,0.93l-0.41,0.67l0.98,0.26l0.21,0.1l0.88,0.26c0,0,0.05-0.57,0.72-0.46c0,0,0.46-1.24,2.32-0.83
	c0,0,0.31-0.1,0.72,0.1c0.15,0.1,0.31,0.21,0.46,0.36l-0.21-0.67c0,0,0.21-0.31,0.72-0.21c0,0-0.21-0.21-0.36-0.52
	c-0.21-0.31-0.36-0.67-0.36-1.03c0,0,0.62-0.26,1.24-0.15v-0.57h0.36l-0.67-0.41c0,0-1.7,1.91-4.9,0.98
	c-0.57-0.15-1.19-0.41-1.81-0.77c0,0,0.62,1.55,2.58,1.5C143.23,33.14,143.08,33.34,142.82,33.6L142.82,33.6z M134.51,33.6
	c1.03,0.31,2.84,0.46,2.84,0.46c-0.15,0.15-0.31,0.31-0.46,0.41c-0.57,0.46-1.03,0.57-1.03,0.57c-0.31,0.52-0.15,1.44-0.15,1.44
	c0.15,0.21,0.62,0.36,1.03,0.52c0.52,0.21,1.03,0.36,1.03,0.36c-0.67,0.15-1.39,0.1-1.91,0c-0.57-0.05-0.93-0.21-0.93-0.21
	l0.26-0.52c-0.21-1.34-2.22-1.5-2.22-1.5l0.1-0.62c0.26-0.31,0.52-0.67,0.62-0.93c0.1-0.15,0.15-0.31,0.15-0.31
	c0.1,0.1,0.36,0.21,0.62,0.31h0l0,0h0h0h0h0h0h0h0h0h0h0.01h0.01H134.51L134.51,33.6L134.51,33.6z M171.25,37.88
	c-0.15,0.1-0.26,0.21-0.26,0.41c0,0,0.1,0.31,0.77,0.52c0,0,0.1-0.57-0.05-1.19C171.72,37.63,171.46,37.73,171.25,37.88
	L171.25,37.88z M147.72,36.96l0.36-0.1c0,0-0.36-0.31-0.41-0.52c0,0,0-0.41-0.46-0.77l0.05,0.36v0.52l0.15,0.15v0.41L147.72,36.96
	L147.72,36.96z M149.37,38.76l0.05,0.77l0.67-0.72c-0.1,0-0.21-0.05-0.26-0.15c-0.26-0.21-0.41-0.52-0.41-0.52L149.37,38.76
	L149.37,38.76z M151.71,33.62c0.39-0.04,0.72-0.01,0.91,0.21c-0.01-0.33,0.14-0.66,0.63-0.74c0,0-1.08-0.21-2.06-0.57
	c-0.62-0.21-1.24-0.46-1.44-0.77l-0.46,0.15l-0.36,0.15v0.15c0,0,0.98,0.15,1.5,0.57v-0.21C150.41,32.57,151.35,32.74,151.71,33.62
	L151.71,33.62z M154.43,35.67c0-0.1,0.05-0.21,0.05-0.36l0.77,0.83c0,0,0.15,0.52-0.15,0.83c0,0-0.15-0.15-0.36-0.26
	c-0.1-0.05-0.26-0.1-0.41-0.1l-0.05-0.67C154.28,35.92,154.38,35.82,154.43,35.67L154.43,35.67z"/>
<path class="st143" d="M99.57,15.94c0,0,5.79,2.95,6.49,3.54c0.74,0.58,0.35,0.97,0.35,0.97s-0.27,0.39-0.93,0.54
	c-0.66,0.12-0.47,0.66-0.47,0.66l-0.08,13.79c2.72,2.68,5.28,1.24,5.28,1.24c0.97-0.31,0.85-1.17,0.85-1.17s0.19-12.97,0.12-13.4
	c-0.08-0.47-0.47-0.47-0.47-0.47s-2.41-1.52-2.8-1.79c-0.43-0.27,0.04-0.7,0.04-0.7s4.08-2.84,4.66-3.38
	c0.58-0.5,1.05-0.19,1.05-0.19s6.72,3.77,7.5,4.35c0.78,0.58,0.39,0.78,0.39,0.78s-1.52,1.51-1.9,1.9
	c-0.39,0.39-0.19,0.74-0.19,0.74l-0.08,12.74c-0.5,3.26-5.63,3.73-5.63,3.73c-6.18,0.08-9.05-2.56-9.05-2.56
	c-2.45-1.52-5.28-0.47-5.28-0.47c-3.61,1.24-3.88,3.57-3.88,3.57c-0.12,1.67,1.75,2.49,1.75,2.49c2.29,1.48,5.63,0.54,5.63,0.54
	c2.84-0.97,7.22-2.45,7.22-2.45c2.76-0.58,4.93-0.12,4.93-0.12c2.49,0.54,3.46,1.71,3.46,1.71c1.59,1.63,1.48,3.73,1.48,3.73
	c0.12,4.58-5.52,6.14-5.52,6.14c-2.53,0.5-3.22-0.08-3.22-0.08c-1.79-0.39,0.12-0.58,0.12-0.58s-3.26,0.19,0.27,0.04
	c3.53-0.12,3.92-1.83,3.92-1.83c1.28-2.29-0.7-2.68-0.7-2.68c-2.72-0.39-5.67,1.83-5.67,1.83c-6.6,2.95-11.62,0.5-11.62,0.5
	c-5.13-1.98-4.47-5.79-4.47-5.79c0.12-4.93,3.22-6.88,3.22-6.88l-0.19-15.27c-0.16-0.39-0.54-0.5-0.54-0.5s-2.14-0.85-2.49-1.32
	c-0.31-0.47,0.19-0.66,0.19-0.66l4.93-3.26C98.83,15.12,99.57,15.94,99.57,15.94L99.57,15.94z M3.85,13.61
	c-0.74-0.5,0.08-0.78,0.08-0.78l7.42-5.44h19.62c4.23,0.39,3.88,5.83,3.88,5.83l-0.08,20.04c-6.88,1.32-10.18,7.15-10.18,7.15
	c-6.41-1.83-17.4-0.19-17.4-0.19c-0.97,0.08-0.31-0.66-0.31-0.66c3.81-6.68,11.11-6.49,11.11-6.49c0.47-0.01,0.93,0,1.38,0.03
	l0.04-19.29L3.85,13.61L3.85,13.61z M13.64,14.7c1.44-0.66,1.17,0.31,1.17,0.31v11.15c-0.12,4.7-3.81,7.26-3.81,7.26
	c-1.09,1.48-5.24,3.19-5.24,3.19c-1.44,0.54-0.58-0.85-0.58-0.85c1.36-2.02,1.36-3.46,1.36-3.46v-13.4c0-0.39,0.16-0.54,0.16-0.54
	L13.64,14.7L13.64,14.7z M20.03,33.16c3.4,0.34,5.89,1.54,5.89,1.54l-0.05-8.62l-0.05,0.04c-0.01-0.01-2.73-3.6-5.77,0.13
	L20.03,33.16L20.03,33.16z M25.86,25.21l-0.02-3.61c-1.04,0.97-3.46,2.61-5.79-0.42l-0.01,4.09C22.6,22.67,24.91,24.29,25.86,25.21
	L25.86,25.21z M25.83,20.65l-0.04-6.03c0.27-1.01-1.13-0.74-1.13-0.74l-4.61-0.06l-0.01,6.19C22.66,24.33,25.57,20.98,25.83,20.65
	L25.83,20.65z M79.44,11.2c0,0,8.55-2.76,9.63-3.03c1.13-0.27,1.05,0.27,1.05,0.27s-0.23,24.32-0.04,25.17
	c0.19,0.85,0.58,0.62,0.58,0.62s1.98,1.4,2.41,1.59c0.47,0.19,0.23,0.66,0.23,0.66l-4.82,3.73c0,0-7.85-3.46-8.47-3.85
	c-0.78-0.54-0.27-0.85-0.27-0.85l1.4-1.4c0,0,0.23-19.89-0.16-20.94c-0.39-1.05-1.63-1.48-1.63-1.48
	C79.09,11.28,79.44,11.2,79.44,11.2L79.44,11.2z M69.85,15.32c0.27,0.66,0.97,0.54,0.97,0.54c3.11-1.24,4.35-4.2,4.35-4.2
	c0.78-2.91-1.05-3.69-1.05-3.69c-1.63-0.97-2.84-0.19-2.84-0.19c-1.86,1.01-2.37,2.95-2.37,2.95C68.45,13.3,69.85,15.32,69.85,15.32
	L69.85,15.32z M68.45,16.64c0,0-5.05,3.11-5.44,3.69c-0.39,0.58-0.08,0.85-0.08,0.85s2.18,1.36,2.76,1.59
	c0.62,0.19,0.39,0.5,0.39,0.5l0.16,10.1c0.08,0.27,0,0.97,0,0.97s-0.85,0.7-1.32,1.09c-0.54,0.47-0.12,0.93-0.12,0.93l7.81,3.92
	c0,0,5.28-3.81,5.75-4c0.47-0.19,0-0.58,0-0.58s-2.29-1.32-2.68-1.52c-0.39-0.19-0.23-0.58-0.23-0.58s-0.31-9.98-0.08-10.84
	c0.19-0.82,0.47-0.54,0.47-0.54s0.7-0.19,1.32-0.58c0.58-0.39,0.04-0.74,0.04-0.74s-7.26-3.81-7.81-4.27
	C68.84,16.17,68.45,16.64,68.45,16.64L68.45,16.64z M36.27,33.46c-0.02-0.08,0.6,5.87,8.22,6.84l5.05-4.08c0,0,0.27-0.47,0.66-0.08
	l8.55,4.16l5.21-4.08c0,0,0.23-0.47-0.16-0.93l-3.61-2.41v-9.91c0,0-0.04-0.47,0.27-0.54l1.4-1.13c0,0,0.23-0.39-0.23-0.89
	c-0.43-0.54-8.93-4.74-8.93-4.74s-0.31-0.47-1.09,0.08c0,0-9.28,3.73-12.94,8.51C38.66,24.25,35.74,26.12,36.27,33.46L36.27,33.46z
	 M43.55,30.27c0.23,0.43-1.55-2.52-0.7-5.75c0,0,0.12-2.84,3.42-4.27l4.47,2.91l-0.08,11.5c0,0-0.58,0.97-2.02,0.31
	C48.64,34.97,44.95,33.15,43.55,30.27L43.55,30.27z"/>
<path class="st143" d="M276.62,16.95c0,0-5.05,3.07-5.44,3.69c-0.39,0.58-0.08,0.85-0.08,0.85s2.18,1.36,2.76,1.55
	c0.62,0.19,0.39,0.54,0.39,0.54l0.16,10.1c0.08,0.27,0,0.97,0,0.97s-0.85,0.66-1.32,1.05c-0.54,0.47-0.12,0.93-0.12,0.93l7.81,3.96
	c0,0,5.28-3.81,5.75-4.04c0.47-0.19,0-0.58,0-0.58s-2.25-1.32-2.68-1.51c-0.39-0.19-0.23-0.58-0.23-0.58s-0.31-9.98-0.08-10.84
	c0.19-0.78,0.47-0.54,0.47-0.54s0.7-0.19,1.32-0.58c0.58-0.39,0.04-0.7,0.04-0.7s-7.26-3.81-7.81-4.27
	C277.04,16.48,276.62,16.95,276.62,16.95L276.62,16.95z M199.39,13.65c-1.2-0.66-0.35-0.97-0.35-0.97l6.06-3.88
	c0.31-0.27,0.58,0.12,0.58,0.12l5.52,3.22c0,0,7.46-3.96,7.96-4.27c0.31-0.19,0.58,0.08,0.58,0.08l6.29,3.5l6.33-3.96
	c0.7-0.58,0.89-0.19,0.89-0.19l7.42,4.35c0.62,0.39,0.35,0.5,0.35,0.5v20.12c0.27,2.49,2.37,3.46,2.37,3.46
	c0.58,0.47,0.31,0.82,0.31,0.82L238,40.61c-4.93-1.67-5.4-5.67-5.4-5.67V15.71c-0.12-0.66-0.58-0.82-0.58-0.82l-3.81-1.94l0.03,8.55
	h4.1l-4.08,5.88l0.02,7.07l2.85,1.93c0.39,0.47-0.23,0.54-0.23,0.54l-5.9,3.69l-8.78-4.66c-0.82-0.54-0.19-0.85-0.19-0.85l1.9-1.2
	v-6.18h-4.18l0.01,7.93l1.41,0.89c0.43,0.47-0.08,0.78-0.08,0.78l-5.87,3.3l-7.65-4.04c-0.66-0.43,0.04-0.78,0.04-0.78l2.18-1.24
	V16.76l-4.2-3.03L199.39,13.65L199.39,13.65z M227.68,12.71c-1.16-0.36-0.98,0.36-0.98,0.36l0.08,7.81v0.62h0.93L227.68,12.71
	L227.68,12.71z M227.73,27.71h-0.95v5.71c0.04,0.16,0.51,0.35,0.51,0.35l0.47,0.32L227.73,27.71L227.73,27.71z M213.74,26.6
	l3.44-5.11h0.74v-5.79c-0.12-0.31-0.54-0.62-0.54-0.62l-3.66-1.9L213.74,26.6L213.74,26.6z M213.19,13.06
	c-1.07,0.02-1.14,0.75-1.14,0.75l-0.08,20.74c0,0.12,0.35,0.19,0.35,0.19l0.9,0.57L213.19,13.06L213.19,13.06z M244.44,33.46
	c-0.02-0.08,0.6,5.87,8.22,6.84l5.05-4.08c0,0,0.27-0.47,0.66-0.08l8.55,4.16l5.21-4.08c0,0,0.23-0.47-0.16-0.93l-3.61-2.41v-9.91
	c0,0-0.04-0.47,0.27-0.54l1.4-1.13c0,0,0.23-0.39-0.23-0.89c-0.43-0.54-8.93-4.74-8.93-4.74s-0.31-0.47-1.09,0.08
	c0,0-9.28,3.73-12.94,8.51C246.83,24.25,243.92,26.12,244.44,33.46L244.44,33.46z M251.72,30.27c0.23,0.43-1.55-2.52-0.7-5.75
	c0,0,0.12-2.84,3.42-4.27l4.47,2.91l-0.08,11.5c0,0-0.58,0.97-2.02,0.31C256.81,34.97,253.12,33.15,251.72,30.27L251.72,30.27z
	 M287.61,11.2c0,0,8.51-2.76,9.63-3.03c1.09-0.27,1.05,0.27,1.05,0.27s-0.23,24.59-0.04,25.44c0.19,0.85,0.58,0.66,0.58,0.66
	s1.98,1.4,2.41,1.59c0.47,0.19,0.23,0.66,0.23,0.66l-4.82,3.73c0,0-7.85-3.46-8.47-3.88c-0.78-0.51-0.27-0.85-0.27-0.85l1.4-1.36
	c0,0,0.23-20.24-0.16-21.29c-0.39-1.05-1.63-1.44-1.63-1.44C287.26,11.24,287.61,11.2,287.61,11.2L287.61,11.2z M278.01,15.63
	c0.27,0.66,0.97,0.54,0.97,0.54c3.11-1.28,4.35-4.23,4.35-4.23c0.78-2.87-1.05-3.65-1.05-3.65c-1.63-1.01-2.84-0.19-2.84-0.19
	c-1.86,1.01-2.37,2.95-2.37,2.95C276.62,13.61,278.01,15.63,278.01,15.63L278.01,15.63z"/>
<path class="st144" d="M144.11,12.81l0.72-0.36v0.52l0.26-0.26l0.31,0.72l-0.41,0.05l0.26,0.26c0.57,0.41,0.21,0.77,0.21,0.77
	l-0.26,0.21c-0.83,0.31-0.57-0.98-0.57-0.98l-0.26,0.26l-0.31-0.77h0.41L144.11,12.81L144.11,12.81z"/>
<path class="st144" d="M143.34,16.06c0.62,0.05,0.67,0.52,0.67,0.52c0.05-0.88,0.72-0.1,0.72-0.1c-0.41,0.15-0.57,0.36-0.57,0.36
	c0,0.52,0.77,0.52,0.77,0.52c0.67-0.36,0.57-0.77,0.57-0.77c0.1-0.57-0.57-0.26-0.57-0.26l-0.26-0.57l0.41-0.05v-0.21l-0.36-0.21
	l1.14-0.57l-0.15,0.46l0.1,0.1l0.26-0.31l0.21,0.83c-0.52-0.1-0.31,0.36-0.31,0.36c0.29,0.32,0.53,0.35,0.7,0.28
	c0.22-0.09,0.33-0.33,0.33-0.33c0.31-0.36-0.05-0.52-0.05-0.52c-0.41,0.15-0.46,0.31-0.46,0.31c-0.21-1.08,0.36-0.88,0.36-0.88
	c-0.15-0.52,0-0.77,0-0.77c0.41,0.21,0.46,0.62,0.46,0.62c0.62-0.67,0.72,0.05,0.72,0.05c-0.83,0.15-0.46,0.62-0.46,0.62
	c0.19,0.31,0.35,0.36,0.47,0.28c0.26-0.17,0.36-0.95,0.36-0.95c-0.46-0.67-1.65-0.79-1.65-0.72l-0.05,0.42l-0.62,0.1l-0.1-0.31
	l-0.15-0.05v-0.26c1.5-0.57,2.84,0.67,2.84,0.67l0.05,2.06c-2.22,0.31-4.95,2.12-4.95,2.12l-1.08-1.86c0.36-1.5,1.75-2.32,1.75-2.32
	l0.21,0.21l-0.26,0.31l0.1,0.36l-0.62,0.52l-0.52-0.26c-0.22,0.39-0.44,0.77-0.36,1.19l0.36,0.77c0.72,0.31,0.46-0.57,0.46-0.57
	c-0.21-0.26-0.46,0.31-0.46,0.31c-0.46-0.88,0.15-0.83,0.15-0.83C143.23,16.47,143.34,16.06,143.34,16.06L143.34,16.06z"/>
<path class="st144" d="M126.57,34.94c-0.67,1.75-0.31,4.02-0.31,4.02h-0.41v-2.84c-1.19-0.26-0.67-0.72-0.67-0.72
	C125.64,34.79,126.57,34.94,126.57,34.94L126.57,34.94z"/>
<path class="st144" d="M128.84,40.16c0.26,0.41,0.21,0.98,0.21,0.98c-0.1-0.41-0.52-0.36-0.52-0.36
	C128.32,40.16,128.84,40.16,128.84,40.16L128.84,40.16z"/>
<path class="st144" d="M129.82,40.16c0.26-0.15,0.26-0.52,0.26-0.52c0.57,0.26,0.21,1.08,0.21,1.08
	C130.18,40.36,129.82,40.16,129.82,40.16L129.82,40.16z"/>
<path class="st144" d="M129.15,38.14c0.83-0.15,1.03,0.62,1.03,0.62c0.36,0.36,0.36-0.15,0.36-0.15
	C130.08,37.16,129.15,38.14,129.15,38.14L129.15,38.14z"/>
<path class="st144" d="M130.28,39.12c0.26,0.1,0.36-0.1,0.36-0.1c0.21,0.46-0.05,0.83-0.05,0.83c-0.05-0.41-0.31-0.41-0.31-0.41
	V39.12L130.28,39.12z"/>
<path class="st144" d="M130.9,38.5c-0.52-1.91-1.86-0.62-1.86-0.62c-0.36-1.19,0.15-2.12,0.15-2.12c0.77,0.1,1.81,0,1.81,0
	c0.26,0,0.15,0.15,0.15,0.15c0.21,0.93-0.36,0.93-0.36,0.93c0.41,0.36,0.52,0.21,0.52,0.21c0.83,0.1,1.55-1.55,1.55-1.55
	c0.77-0.05,1.7,0.62,1.7,0.62c0.52,0.46,0,0.62,0,0.62c-0.72-0.15-2.01,0.1-2.01,0.1c-0.15,0.1-0.1,0.41-0.1,0.41
	c0.1,0.31,0.15,1.34,0.15,1.34C131.93,38.45,130.9,38.5,130.9,38.5L130.9,38.5z"/>
<path class="st144" d="M134.31,32.83c0.21-0.77,1.75-1.6,1.75-1.6c0.77-0.31,1.91-0.57,1.91-0.57c1.34,0.05,2.27,1.5,2.27,1.5
	l-0.52,0.41l0.21,0.15c0.46-0.46,0.98,0.05,0.98,0.05c0.46,0.26,1.6,0.67,1.6,0.67c-0.52,0.77-2.12,0.46-2.12,0.46
	c0.05,0.83-0.88,1.39-0.88,1.39c0.62,0.52,2.99,0.98,2.99,0.98c0.88-1.24,1.81-0.36,1.81-0.36c0.21,0.15,0.46,0.41,0.46,0.41
	c-0.52,0.26-0.36,0.93-0.36,0.93c-1.03,0.21-3.92,0.21-3.92,0.21c-2.84-0.41-4.28-1.14-4.28-1.14c-0.26-0.15-0.1-0.36-0.1-0.36
	l-0.05-0.31c-0.05-0.36,0.26-0.31,0.26-0.31c1.03-0.15,1.91-1.29,1.91-1.29c0.26-0.62-0.31-0.52-0.31-0.52
	C136.17,33.45,134.31,32.83,134.31,32.83L134.31,32.83z"/>
<path class="st144" d="M143.49,35.36c0.67-0.93,1.6-0.31,1.6-0.31c0.21,0.15,0.41,0.62,0.41,0.62c-0.41,0-0.52,0.36-0.52,0.36
	C144.63,35.3,143.49,35.36,143.49,35.36L143.49,35.36z"/>
<path class="st144" d="M144.73,37.16c-0.1-0.41,0.26-0.57,0.26-0.57c0.21,0.15,0.41,0.52,0.41,0.52
	C145.2,37.16,144.73,37.16,144.73,37.16L144.73,37.16z"/>
<path class="st144" d="M145.09,36.29c0.46,0.21,0.52,0.77,0.52,0.77l0.36-0.05c0.1-0.77-0.31-1.19-0.31-1.19
	C145.2,35.87,145.09,36.29,145.09,36.29L145.09,36.29z"/>
<path class="st144" d="M145.61,34.89c0.26,0.15,0.21,0.67,0.21,0.67c0.36,0.26,0.46,0.77,0.46,0.77c0.26-0.15,0.67-0.1,0.67-0.1
	C146.74,34.79,145.61,34.89,145.61,34.89L145.61,34.89z"/>
<path class="st144" d="M146.38,36.54l0.05,0.41L147,36.9c0.05-0.31-0.1-0.52-0.1-0.52C146.59,36.34,146.38,36.54,146.38,36.54
	L146.38,36.54z"/>
<path class="st144" d="M149.99,25.4c0.1,0.41,0,1.14,0,1.14c-0.15,0.31-0.57,0.93-0.57,0.93l0.72,0.72l1.75,0.05
	c0.21-0.62,1.24-1.65,1.24-1.65c0.67-3.1,2.37-4.39,2.37-4.39v-0.26c-0.41-0.1-0.46-0.52-0.46-0.52c0-0.57,0.41-0.83,0.41-0.83
	c0.21,0.21,0.21-0.15,0.21-0.15c-0.1-0.1-0.26-0.1-0.26-0.1l-0.1,0.21l-0.46,0.72c-0.21,0.67-1.5,2.63-1.5,2.63
	c-0.41,0.41-1.75,1.91-1.75,1.91l-0.21-0.1C150.92,25.76,149.99,25.4,149.99,25.4L149.99,25.4z"/>
<path class="st144" d="M152.99,34.12l0.36-0.62l0.26,0.05c0.1,0.72,0.57,1.24,0.57,1.24l-0.05,1.03c-0.15-0.36-0.52-0.36-0.52-0.36
	C153.86,34.53,152.99,34.12,152.99,34.12L152.99,34.12z"/>
<path class="st144" d="M150.66,38.92h-0.36l-0.88,0.98c-0.05,0.57-0.77,0.83-0.77,0.83c1.39-0.1,1.6-0.62,1.6-0.62
	c-0.1,0.41-0.31,0.77-0.31,0.77c0.88-0.46,0.67-0.67,0.67-0.67c0.15-0.52,0.1-0.57,0.1-0.57c0.05-0.26,0.1-0.31,0.1-0.31
	C150.92,38.92,150.66,38.92,150.66,38.92L150.66,38.92z"/>
<path class="st144" d="M151.28,39.33c0.57,0.1,0.88,0.05,0.88,0.05c0.72,0.67-0.05,1.65-0.05,1.65c-0.21-0.46-0.1-0.67-0.1-0.67
	c0.1-0.26-0.1-0.57-0.1-0.57c-0.31,0.41-0.1,1.14-0.1,1.14c-0.62-0.26-0.77-0.88-0.77-0.88C151.03,39.64,151.28,39.33,151.28,39.33
	L151.28,39.33z"/>
<path class="st144" d="M157.06,33.34l0.46-0.36c0.21,0.52-0.15,1.03-0.15,1.03C157.32,33.7,157.06,33.34,157.06,33.34L157.06,33.34z
	"/>
<path class="st144" d="M156.34,34.01c0.15-0.15,0.36-0.46,0.36-0.46c0.31,0.46,0.15,1.08,0.15,1.08c-0.26-0.15-0.15-0.05-0.15-0.05
	L156.34,34.01L156.34,34.01z"/>
<path class="st144" d="M156.19,28.8v1.75c1.5-0.15,1.34,0.98,1.34,0.98c0.62,0.21,0.21,1.29,0.21,1.29
	c0.26,0.62-0.05,1.34-0.05,1.34c0.77,1.81,3.1,2.48,3.1,2.48l-0.1-7.89L156.19,28.8L156.19,28.8z"/>
<path class="st144" d="M155.88,25.71l0.05,1.03c-0.83,1.75-0.36,4.13-0.36,4.13c-0.31,0.05-0.41,0.31-0.41,0.31
	C154.59,27.46,155.88,25.71,155.88,25.71L155.88,25.71z"/>
<polygon class="st144" points="159.18,36.13 159.13,40 160.78,41.34 162.17,40.1 162.17,36.59 161.6,36.65 161.6,39.64 
	160.78,40.57 159.85,39.9 159.85,36.59 159.18,36.13 "/>
<path class="st144" d="M160.73,37.94c0.15,0,0.26-0.1,0.26-0.31c0-0.21-0.1-0.36-0.26-0.36c-0.1,0-0.21,0.15-0.21,0.36
	C160.52,37.83,160.62,37.94,160.73,37.94L160.73,37.94z"/>
<path class="st144" d="M161.19,38.76c0.1,0,0.21-0.15,0.21-0.31c0-0.21-0.1-0.36-0.21-0.36c-0.15,0-0.26,0.15-0.26,0.36
	C160.93,38.61,161.04,38.76,161.19,38.76L161.19,38.76z"/>
<path class="st144" d="M160.78,39.38c0.1,0,0.21-0.15,0.21-0.31c0-0.15-0.1-0.31-0.21-0.31c-0.15,0-0.26,0.15-0.26,0.31
	C160.52,39.23,160.62,39.38,160.78,39.38L160.78,39.38z"/>
<path class="st144" d="M160.37,38.71c0.15,0,0.26-0.15,0.26-0.36c0-0.15-0.1-0.31-0.26-0.31c-0.15,0-0.26,0.15-0.26,0.31
	C160.11,38.56,160.21,38.71,160.37,38.71L160.37,38.71z"/>
<path class="st144" d="M155.93,34.53c-0.05-0.41,0.15-0.46,0.15-0.46c0.21,0.52,0.62,0.83,0.62,0.83v-0.05
	c0.15,0.36,0.62,0.72,0.62,0.72c0.05,0.36-0.31,0.36-0.31,0.36C156.34,35.36,155.93,34.53,155.93,34.53L155.93,34.53z"/>
<path class="st144" d="M156.96,34.84c0.26-0.31,0.21-0.57,0.21-0.57c0.15,0.26,0.26,0.26,0.26,0.26l0.15-0.1
	c0.1,0.15,0.31,0.46,0.31,0.46c-0.36,0.05-0.57,0.46-0.57,0.46C157.01,35.2,156.96,34.84,156.96,34.84L156.96,34.84z"/>
<path class="st144" d="M155.05,35.3l0.36,0.52c0-0.21,0.1-0.36,0.1-0.36l0.41-0.41l-0.21-0.36l-0.41,0.46
	C155.21,35.2,155.05,35.3,155.05,35.3L155.05,35.3z"/>
<path class="st144" d="M154.48,34.38l0.31,0.41c0.05-0.21,0.15-0.26,0.15-0.26l0.52-0.46l-0.31-0.21L154.48,34.38L154.48,34.38z"/>
<polygon class="st144" points="153.19,28.65 153.19,29.22 153.35,29.16 154.12,29.11 153.19,30.2 153.81,30.61 154.69,30.61 
	154.69,30.2 154.48,30.2 153.76,30.2 154.69,29.16 154.69,28.7 154.53,28.75 153.35,28.75 153.19,28.65 "/>
<polygon class="st144" points="153.3,27.36 153.24,27.87 153.35,27.77 154.53,27.93 154.69,28.13 154.79,27.51 154.59,27.51 
	153.5,27.36 153.3,27.2 153.3,27.36 "/>
<path class="st144" d="M154.23,24.57l0.36,0.26l-0.26,0.1c-0.41,0.36-0.15,0.57-0.15,0.57c0.26,0.15,0.31-0.15,0.31-0.15
	c0.41-0.57,0.72-0.26,0.72-0.26c0.52,0.36,0.15,0.93,0.15,0.93l-0.15,0.21l-0.05,0.15l-0.41-0.15l0.21-0.15
	c0.21-0.15,0.15-0.41,0.15-0.41c-0.1-0.46-0.36,0-0.36,0c-0.62,0.62-0.93-0.05-0.93-0.05C153.55,25.14,154.23,24.57,154.23,24.57
	L154.23,24.57z"/>
<path class="st144" d="M155.72,22.87v0.41c-0.62-0.15-0.57,0.46-0.57,0.46c0.15,0.72,0.67,0.62,0.67,0.62v0.31
	c-0.72,0.1-0.98-0.57-0.98-0.57C154.59,22.92,155.72,22.87,155.72,22.87L155.72,22.87z"/>
<polygon class="st144" points="156.19,28.54 160.68,28.54 160.68,21.94 155.98,21.89 156.19,28.54 "/>
<path class="st144" d="M155.82,15.39c1.91-1.7,4.18-2.06,4.18-2.06v1.03C158.46,14.15,155.82,15.39,155.82,15.39L155.82,15.39z"/>
<path class="st144" d="M161.4,13.37v0.93c3.2-0.1,4.7,1.29,4.7,1.29C164.18,13.27,161.4,13.37,161.4,13.37L161.4,13.37z"/>
<polygon class="st144" points="160.26,13.32 160.26,14.35 161.14,14.35 161.14,13.32 160.26,13.32 "/>
<path class="st144" d="M154.53,16.06c-0.31-1.44,0.77-0.88,0.77-0.88L154.53,16.06L154.53,16.06z"/>
<path class="st144" d="M155.67,14.92c-0.1-1.5,0.88-0.67,0.88-0.67L155.67,14.92L155.67,14.92z"/>
<path class="st144" d="M157.06,13.94c-0.05-1.5,0.93-0.62,0.93-0.62L157.06,13.94L157.06,13.94z"/>
<path class="st144" d="M158.4,13.22c0.21-1.96,1.03-0.41,1.03-0.41L158.4,13.22L158.4,13.22z"/>
<path class="st144" d="M160,12.24h1.39c0.21,0.31-0.21,0.77-0.21,0.77c-0.46,0.15-0.93-0.05-0.93-0.05
	C159.54,12.81,160,12.24,160,12.24L160,12.24z"/>
<polygon class="st144" points="160.06,9.92 161.4,9.92 160.99,10.54 161.24,10.79 161.55,10.38 161.6,11.67 160.93,11.16 
	161.24,11.93 160.06,11.88 160.57,11.26 160.42,11.1 159.9,11.57 159.85,10.33 160.37,10.79 160.52,10.64 160.06,9.92 "/>
<path class="st144" d="M165.84,14.51l0.77,0.72C166.87,13.63,165.84,14.51,165.84,14.51L165.84,14.51z"/>
<path class="st144" d="M165.42,14.2l-0.93-0.52C165.58,12.6,165.42,14.2,165.42,14.2L165.42,14.2z"/>
<path class="st144" d="M163.15,12.91l0.93,0.41C164.08,11.72,163.15,12.91,163.15,12.91L163.15,12.91z"/>
<path class="st144" d="M162.79,12.86c-0.1-0.72-0.52-0.72-0.52-0.72c-0.46-0.1-0.52,0.67-0.52,0.67L162.79,12.86L162.79,12.86z"/>
<path class="st144" d="M155.93,20.75c4.95-0.98,9.39,0,9.39,0c0.62,0.1,0.36,0.57,0.36,0.57c-0.46,0.15-0.67,0.05-0.67,0.05
	c-3.82-0.77-8.93,0.15-8.93,0.15c-0.77,0.05-0.62-0.31-0.62-0.31C155.62,20.65,155.93,20.75,155.93,20.75L155.93,20.75z"/>
<polygon class="st144" points="160.93,21.94 160.93,28.6 165.22,28.6 165.37,21.94 160.93,21.94 "/>
<path class="st144" d="M165.22,28.8h-4.28l0.05,7.89c2.37-0.41,3.04-1.86,3.04-1.86c0.1-0.72,1.19-3.72,1.19-3.72V28.8L165.22,28.8z
	"/>
<path class="st144" d="M162.53,36.49v0.77c0.93,0.62,2.06,0.93,2.06,0.93c0.46-0.15,0.26-0.57,0.26-0.57
	c-0.26-0.21-0.52-0.26-0.52-0.26C163.36,37.27,162.53,36.49,162.53,36.49L162.53,36.49z"/>
<polygon class="st144" points="164.13,35 164.39,35.25 163.46,36.59 163.31,36.23 164.13,35 "/>
<path class="st144" d="M164.6,35.41l-0.88,1.24c1.34,0.88,2.12-1.19,2.12-1.19C165.06,35.67,164.6,35.41,164.6,35.41L164.6,35.41z"
	/>
<path class="st144" d="M165.47,25.29v1.24c0.46,0.83,0.57,2.58,0.57,2.58l0.41-0.72C166.4,26.58,165.47,25.29,165.47,25.29
	L165.47,25.29z"/>
<path class="st144" d="M162.48,39.59v0.57c0.41,0.36,1.5,0.62,1.5,0.62c0.26-0.1,0-0.46,0-0.46
	C163.36,40.31,162.48,39.59,162.48,39.59L162.48,39.59z"/>
<path class="st144" d="M164.18,39.38l0.26-0.93c0.88-0.05,0.57-1.03,0.57-1.03c0.72-0.21,1.55-1.55,1.55-1.55l0.21,0.52l0.31,0.62
	c0.15,0.31,0.26,0.46,0.21,0.46l-0.46,0.41v-0.26l-0.88,0.77l0.31-1.7l-0.83,1.91C164.96,39.12,164.18,39.38,164.18,39.38
	L164.18,39.38z"/>
<path class="st144" d="M164.34,39.85c0.72,1.08,3.1,1.08,3.1,1.08c-0.26-0.62-0.93-0.88-0.93-0.88c1.03-0.41,1.96,0.52,1.96,0.52
	c0.57,0.52,1.19,0.52,1.19,0.52c-0.26-0.36-0.52-0.57-0.52-0.57c0.31,0.15,0.62,0.05,0.62,0.05c-0.36-0.62-1.39-1.19-1.39-1.19
	c1.08-0.57,2.01,0.72,2.01,0.72c0.46,0.67,0.88,0.83,0.88,0.83l-0.31-1.03c0.31,0.93,1.55,1.19,1.55,1.19c0.15-0.15,0-0.46,0-0.46
	c-0.36,0-0.67-0.52-0.67-0.52l-0.05-1.03c-1.14-0.15-1.14-0.77-1.14-0.77c0.15-0.93,0.98-1.03,0.98-1.03l-0.1-1.19
	c0.67-0.62,1.96-0.26,1.96-0.26c-0.1-0.72-0.67-0.52-0.67-0.52c0-0.57-0.67-0.62-0.67-0.62v0.15l-1.86,1.44
	c0.26,1.44-0.41,1.91-0.41,1.91c-1.29,0.83-2.22-0.31-2.22-0.31l-0.72,0.46c0.67,0.05,1.14,0.67,1.14,0.67l-0.1,0.1
	c-0.46-0.41-1.14-0.57-1.14-0.57l-0.62,0.26l-0.31,0.26L164.34,39.85L164.34,39.85z"/>
<path class="st144" d="M168.47,34.63c0.57-0.83,0.83-2.17,0.83-2.17l0.21,0.26l-0.31,0.98l0.21,0.21l0.36-0.83l0.26,0.31l-0.41,0.67
	l0.31,0.26l0.41-0.57l0.26,0.21l-0.57,0.57l0.26,0.36l0.46-0.72l0.36,0.26l-0.62,0.62l0.26,0.21l0.62-0.52l0.21,0.15l-1.5,1.24
	C169.55,35,168.47,34.63,168.47,34.63L168.47,34.63z"/>
<path class="st144" d="M173.78,35.87c1.29-0.31,0.21-0.98,0.21-0.98c-1.14-0.41-1.29-0.21-1.29-0.21c0.41,0.15,0.36,0.41,0.36,0.41
	C173.63,35.15,173.78,35.87,173.78,35.87L173.78,35.87z"/>
<path class="st144" d="M173.83,37.11l0.46-1.14c-0.72,0.26-1.19,0.1-1.19,0.1c-0.77-0.1-1.08,0.1-1.08,0.1
	c-0.46,0.26-0.1,0.31-0.1,0.31C172.49,37.06,173.83,37.11,173.83,37.11L173.83,37.11z"/>
<polygon class="st144" points="175.33,36.96 175.59,37.27 176.83,36.85 176.1,37.37 177.45,37.47 176.83,36.54 175.33,36.96 "/>
<path class="st144" d="M171.62,14.15c-0.1-0.93-0.62-1.34-0.62-1.34c-0.57-0.36-0.62-0.05-0.62-0.05c0,0.46,0.36,0.62,0.36,0.62
	L171.62,14.15L171.62,14.15z"/>
<path class="st144" d="M172.8,14.87c-0.1-0.57-0.15-0.62-0.15-0.62c-0.21-0.36-0.36-0.57-0.36-0.57l-0.67-0.46
	c0.21,0.41,0.26,0.93,0.26,0.93L172.8,14.87L172.8,14.87z"/>
<path class="st144" d="M172.85,14.05c0.31,0.52,0.26,0.93,0.26,0.93l0.83,0.83c0-0.83-0.41-1.34-0.41-1.34l-0.67-0.52V14.05
	L172.85,14.05z"/>
<path class="st144" d="M171.25,19.77c-0.36,0.21-0.62,0.1-0.62,0.1c0,0.52,0.93,0.52,0.93,0.52c0.36,0,0.67-0.36,0.67-0.36v-0.21
	c-0.31,0.21-0.67,0.26-0.67,0.26L171.25,19.77L171.25,19.77z"/>
<path class="st144" d="M172.39,23.33l0.1-0.36c0.98-0.26,0.26-0.98,0.26-0.98c0.36-0.15,0.46-0.05,0.46-0.05
	c0.46-0.26,0.62,0.31,0.62,0.31c0.36-0.31,0.62-0.1,0.62-0.1c-0.77,0.72,0.15,0.98,0.15,0.98c0.46,0,0.57-0.46,0.57-0.46
	c-0.21-0.21-0.26-0.36-0.26-0.36c0.26,0.1,0.41,0.26,0.41,0.26c-0.05-0.31,0.26-0.31,0.26-0.31c0.15,0.26,0.1,0.46,0.1,0.46
	c0.15-0.15,0.46,0,0.46,0c-0.46,0.52,0.15,0.98,0.15,0.98c0.72,0.41,0.62-0.77,0.62-0.77c0.52,0,0.46,0.46,0.46,0.46l0.31-0.26
	c0.1,0.31,0.1,0.52,0.1,0.52c0.21-0.26,0.52-0.05,0.52-0.05c-0.83,0.52-0.26,0.98-0.26,0.98c0.26,0.21,0.46,0.05,0.46,0.05
	l-0.05-0.36l0.67,0.1l-0.67,0.77C174.97,23.13,172.39,23.33,172.39,23.33L172.39,23.33z"/>
<path class="st144" d="M173.99,14.72l0.67,0.41c-0.05,0.41-0.41,0.83-0.41,0.83C174.35,15.54,173.99,14.72,173.99,14.72
	L173.99,14.72z"/>
<path class="st144" d="M177.19,15.13c1.39-0.36,2.32,1.5,2.32,1.5l-1.03-0.41C178.07,15.75,177.19,15.13,177.19,15.13L177.19,15.13z
	"/>
<path class="st144" d="M178.58,16.52c0.31,0.41,0.46,1.08,0.46,1.08c0.36,0.41,1.39,1.03,1.39,1.03
	C180.18,16.93,178.58,16.52,178.58,16.52L178.58,16.52z"/>
<path class="st144" d="M179.25,18.22c1.81,0.67,1.24,2.58,1.24,2.58c-0.26-0.67-0.72-0.88-0.72-0.88
	C179.25,19.41,179.25,18.22,179.25,18.22L179.25,18.22z"/>
<path class="st144" d="M179.56,20.24c0.05,0.41-0.1,1.14-0.1,1.14c0.26,0.41,0.46,1.24,0.46,1.24c0.21-0.21,0.46-1.44,0.46-1.44
	C180.23,20.6,179.56,20.24,179.56,20.24L179.56,20.24z"/>
<path class="st144" d="M179.36,21.89c-0.1,0.57-0.72,1.6-0.72,1.6l0.26,0.31L179.2,24C180.08,22.87,179.36,21.89,179.36,21.89
	L179.36,21.89z"/>
<path class="st144" d="M189.98,38.66l-0.46-1.75c-0.36-0.57-0.93-0.21-0.93-0.21c-0.46,0.36-1.03,0.15-1.03,0.15
	c-0.62-0.1-0.1-0.52-0.1-0.52c0.83-0.52,1.65-0.77,1.65-0.77c0.62,0.26,1.75,0.21,1.75,0.21c0.98-0.15,0.77,0.67,0.77,0.67
	c0.05,0.77-0.21,2.12-0.21,2.12C190.81,38.56,189.98,38.66,189.98,38.66L189.98,38.66z"/>
<path class="st144" d="M191.64,39.02l0.26,0.26l-0.77,1.39l-0.36-0.21C191.27,40.05,191.64,39.02,191.64,39.02L191.64,39.02z"/>
<path class="st144" d="M192.1,39.38l-0.62,1.34c1.14,0.21,1.96-0.57,1.96-0.57l-0.15-0.83C192.72,39.59,192.1,39.38,192.1,39.38
	L192.1,39.38z"/>
<path class="st144" d="M194.42,38.81c0.26,0.05,0.77,0.26,0.77,0.26c0.21-0.93-0.26-2.06-0.26-2.06c0.88,0.31,0.88-0.05,0.88-0.05
	c0.26-0.72-0.62-0.93-0.62-0.93c-1.5-0.46-2.01-0.36-2.01-0.36c0.1,0.41,0.05,0.67,0.05,0.67c0.05,0.1,0.05,0.52,0.05,0.52
	C194.73,37.37,194.42,38.81,194.42,38.81L194.42,38.81z"/>
<polygon class="st144" points="165.53,22.82 165.53,23.23 166.04,22.87 165.53,24.06 165.47,24.78 166.3,23.02 166.04,22.56 
	165.53,22.82 "/>
<polygon class="st144" points="165.68,25.04 165.89,25.04 166.97,24.21 167.07,24 167.33,24.57 167.18,24.57 166.2,25.35 
	166.35,25.76 166.61,26.02 166.25,26.17 165.68,25.04 "/>
<polygon class="st144" points="166.61,27.31 166.76,27.93 167.02,27.77 167.44,27.62 167.8,27.87 168.31,27.87 167.69,27.46 
	168.16,26.95 167.95,26.33 167.85,26.58 167.38,27.2 166.76,27.36 166.61,27.31 "/>
<path class="st144" d="M167.44,30.97c-0.26,0.05-0.15,0.21-0.15,0.21c0.52,0.67,0.83,0.1,0.83,0.1c0.15-0.31,0.1-0.52,0.1-0.52
	l-0.15-0.05c0,0.62-0.31,0.46-0.31,0.46C167.54,31.18,167.44,30.97,167.44,30.97L167.44,30.97z"/>
<polygon class="st144" points="166.87,31.95 166.76,32.62 166.97,32.98 167.07,32.36 167.59,32.62 167.33,33.14 167.18,33.19 
	167.54,33.4 167.9,32.57 168.05,32.36 167.9,32.36 166.87,31.85 166.87,31.95 "/>
<path class="st144" d="M156.7,37.63c-0.1,0.41-0.46,0.36-0.46,0.36l-0.57-0.67c-0.36-0.57-0.05-0.72-0.05-0.72l0.72-1.03
	c0.26,0.15,0.36,0.41,0.36,0.41l-0.52,0.67c-0.15,0.36,0.1,0.46,0.1,0.46L156.7,37.63L156.7,37.63z"/>
<path class="st144" d="M157.42,35.46c0.21,0.88-0.67,0.67-0.67,0.67c-0.31,0.62,0.15,0.62,0.15,0.62c0.72,0.05,0.98-0.67,0.98-0.67
	C157.89,35.61,157.42,35.46,157.42,35.46L157.42,35.46z"/>
<path class="st144" d="M172.7,21.17l-0.62-0.57c0,0,0.52-0.41,0.41-0.93c0,0,0.36-0.05-0.36-0.05l-0.26,0.15c0,0-0.26-0.1-0.31-0.26
	l-0.1-0.62l0.46-0.57l0.41,0.05c0.3-0.41,1.08-1.11,1.75-1.68l0.21,0.24c-0.26,0.57,0.05,0.72,0.05,0.72
	c0.41,0.26,0.57-0.26,0.57-0.26c0.41,0.21,0.26-0.05,0.26-0.05c-0.42-0.09-0.87-0.64-0.96-0.75c0.53-0.45,0.96-0.79,0.96-0.79
	c0.26-0.57,0.67-0.83,0.67-0.83c-0.26-0.31-0.46-1.14-0.46-1.14c1.29,0,1.5,1.34,1.5,1.34c3.97,3.15,1.5,8.1,1.5,8.1
	c-1.19-0.98-3.87-1.6-3.87-1.6c0.36-0.72,1.24-1.19,1.24-1.19c1.7,0.05,1.44-2.01,1.44-2.01c-0.36-0.72-0.26,0.36-0.26,0.36
	c-0.72,2.37-2.58,0.26-2.58,0.26c-0.21-0.15,0,0.36,0,0.36c0.1,0.26,0.21,0.21,0.21,0.21l0.15,0.15l-1.29,0.52
	c-0.21,0.31-0.57,0.83-0.57,0.83H172.7L172.7,21.17z"/>
<path class="st144" d="M148.7,17.09c-2.17,0.21-4.8,2.12-4.8,2.12c-0.31,0.21-0.36,0.15-0.36,0.15c-0.52,0.93,0.57,1.34,0.57,1.34
	c-0.26,1.39,0.41,2.48,0.41,2.48c0.46,0.57,0.57,2.01,0.57,2.01c0.36-0.26,0.46-0.83,0.46-0.83c0.41,1.75,1.75,2.12,1.75,2.12
	c0.57,0.1,0.83,0.62,0.83,0.62c0.15-0.52,0.1-1.03,0.1-1.03c0.15,0.67,0.77,1.03,0.77,1.03c0.1-0.62,0.31-1.19,0.31-1.19
	c0.46-0.98,0.1-1.96,0.1-1.96c0.21,0.36,0.67,0.46,0.67,0.46c-0.31-0.93,0-1.7,0-1.7c0.15-0.93-0.21-1.55-0.21-1.55l-0.1-0.37
	c-0.22,0.65-0.11,1.66-0.11,1.66c-0.26-0.05-0.52-0.15-0.52-0.15c0.15,0.93-0.46,2.17-0.46,2.17c-0.36,0.57-0.41,0.98-0.41,0.98
	c-0.46-0.62-1.91-1.03-1.91-1.03c-0.31-0.36-0.62-0.93-0.62-0.93c-0.21,0.36-0.41,0.26-0.41,0.26c-0.15-0.52-0.62-1.14-0.62-1.14
	c-0.36-0.62-0.36-1.24-0.36-1.24c0.46,0.88,0.62,1.08,0.62,1.08c0.36,0.21,0.36,0.93,0.36,0.93c0.31-0.15,0.36-0.52,0.36-0.52
	c0.72,1.19,1.7,1.39,1.7,1.39c0.41,0.21,0.77,0.57,0.77,0.57c0.05-0.83,0.36-1.19,0.36-1.19c0.62-0.93,0.26-2.06,0.26-2.06
	c0.26,0.52,0.72,0.57,0.72,0.57c-0.1-0.46-0.05-0.88-0.05-0.88c0.08-0.33,0.12-0.8,0.14-1.16l-0.14-0.54
	c-0.31-0.67-0.36-1.14-0.36-1.14C149.63,17.5,148.7,17.09,148.7,17.09L148.7,17.09z M146.59,21.68c0.41,0.57,0.98,0.77,0.98,0.77
	c0.31-0.67,0.21-1.19,0.21-1.19c-0.46,0.05-0.67-0.1-0.67-0.1C146.95,21.73,146.59,21.68,146.59,21.68L146.59,21.68z M144.58,19.41
	c0.72,0.21,0.98-0.1,0.98-0.1c0.77-0.31,0.88,0.52,0.88,0.52c0,0.36,0.15,0.62,0.15,0.62c0.22,0.02,0.62-0.05,0.77-0.21
	c0.21-0.26-0.1-0.52-0.1-0.52c-0.1-0.36-0.21-0.57-0.21-0.57c0-0.83,0.57-0.77,0.57-0.77c0.36,0.05,0.62-0.31,0.62-0.31
	c0.05,0.77-0.57,0.98-0.57,0.98c-0.36,0.26-0.26,0.57-0.26,0.57c0.36,0.62,0.05,0.67,0.05,0.67c-0.08,0.19-0.23,0.29-0.4,0.34
	c0.16,0.43,0.56,0.38,0.56,0.38c0.57-0.31,0.57-0.93,0.57-0.93c0.26,0.72,0,0.93,0,0.93c0.26,0.46-0.15,0.67-0.15,0.67
	c0,0.88-0.46,1.29-0.46,1.29c-1.75-1.03-1.81-2.22-1.81-2.22c0.57,0.98,1.14,0.52,1.14,0.52c0.11-0.11,0.09-0.44,0.07-0.62
	c-0.25,0.04-0.48,0-0.48,0c-0.31-0.41-0.26-0.72-0.26-0.72c-0.26-0.57-0.41-0.1-0.41-0.1C144.89,20.39,144.58,19.41,144.58,19.41
	L144.58,19.41z"/>
<path class="st144" d="M132.66,37.16c1.44,0.88,6.76,0.88,6.76,0.88c5.11,0.05,7.89-0.67,7.89-0.67c0.62,0,1.65-0.46,1.65-0.46
	c0.21-0.05,0.1,0.36,0.1,0.36c-0.31,1.19-0.05,2.37-0.05,2.37c0,0.83-0.88,0.77-0.88,0.77c-7.48,1.03-13.47,0.52-13.47,0.52
	c-1.75-0.31-1.81-1.24-1.81-1.24c0.41-1.44-0.15-2.27-0.15-2.27C132.5,37.27,132.66,37.16,132.66,37.16L132.66,37.16z M134.31,40.21
	l0.15-0.15v-1.5l-0.1-0.26c1.14-0.05,1.5,0.41,1.5,0.41c0.77,1.29-0.57,1.6-0.57,1.6C134.72,40.41,134.31,40.21,134.31,40.21
	L134.31,40.21z M136.89,38.5l0.77,0.05c-0.21,0.1-0.15,0.41-0.15,0.41l-0.05,1.39c0.1,0.15,0.21,0.31,0.21,0.31l-0.83-0.05
	c0.21-0.15,0.21-0.26,0.21-0.26v-1.5C137.04,38.66,136.89,38.5,136.89,38.5L136.89,38.5z M134.98,38.56L134.93,40
	c0.57,0.05,0.67-0.41,0.67-0.41c0.1-0.26-0.1-0.62-0.1-0.62C135.29,38.56,134.98,38.56,134.98,38.56L134.98,38.56z M138.49,38.66
	h1.5l0.05,0.36c-0.21-0.1-0.46-0.1-0.46-0.1h-0.31v0.57h0.15l0.36-0.1l-0.05,0.46l-0.26-0.05h-0.21v0.62c0.26,0,0.36,0,0.36,0
	c0.21,0,0.36-0.15,0.36-0.15v0.41l-1.14-0.05h-0.31c-0.05-0.05,0-0.05,0-0.05c0.1,0,0.21-0.1,0.21-0.1v-1.6
	C138.69,38.76,138.49,38.66,138.49,38.66L138.49,38.66z M140.81,38.61l0.77,0.05c-0.05,0.05-0.1,0.26-0.1,0.26v1.03
	c0.05,0.41,0.36,0.36,0.36,0.36c0.36-0.05,0.31-0.52,0.31-0.52v-1.03c-0.05-0.05-0.1-0.1-0.1-0.1h0.57
	c-0.05,0.05-0.05,0.15-0.05,0.15v1.08c-0.05,0.67-0.77,0.72-0.77,0.72c-0.77-0.05-0.77-0.77-0.77-0.77v-1.03
	C140.96,38.71,140.81,38.61,140.81,38.61L140.81,38.61z M144.58,38.4l1.24-0.1l0.15,0.36c-0.15-0.05-0.36-0.05-0.36-0.05h-0.31v0.52
	h0.31c0.05-0.05,0.15-0.1,0.15-0.1l0.05,0.46c-0.1-0.1-0.21-0.1-0.21-0.1h-0.31v0.57h0.36c0.1,0,0.26-0.15,0.26-0.15v0.36
	l-1.19,0.15c0.05-0.05,0.1-0.1,0.1-0.1l-0.05-1.65C144.78,38.45,144.58,38.4,144.58,38.4L144.58,38.4z M146.79,38.19l0.05,0.41
	c0.1-0.21,0.46-0.21,0.46-0.21l0.05,1.5l-0.1,0.1l0.62-0.1l-0.1-0.05l-0.05-1.5c0.31-0.1,0.46,0.05,0.46,0.05l-0.05-0.41l-0.05,0.05
	l-1.19,0.1h-0.1V38.19L146.79,38.19z"/>
<path class="st144" d="M149.79,36.54c-0.36-0.67-0.1-1.14-0.1-1.14c0.31-0.93,1.19-0.83,1.19-0.83c0.52,0.31,0.46-0.1,0.46-0.1
	c0.52-0.72,1.14-0.31,1.14-0.31c0.31,0.36,0.67,0.41,0.67,0.41c0.36,0.46,0.15,0.72,0.15,0.72c-0.05,0.26,0.1,0.46,0.1,0.46
	c0.46,0.1,0.41,0.62,0.41,0.62c0.1,0.57-0.26,1.5-0.26,1.5c-0.31,0.26-0.67,0.05-0.67,0.05c-0.26,0.05-0.15,0.15-0.15,0.15
	c0.26,0.41,0,0.62,0,0.62c-0.41,0.46-0.98,0.41-0.98,0.41c-0.83,0-0.88-0.41-0.88-0.41c-0.1-0.36-0.57-0.36-0.57-0.36
	c-0.67-0.21-0.72-0.88-0.72-0.88c-0.05-0.36,0.21-0.52,0.21-0.52C150.05,36.8,149.79,36.54,149.79,36.54L149.79,36.54z
	 M151.18,37.01c0.21,0.77-0.26,1.08-0.26,1.08c-0.41,0.05-0.46-0.26-0.46-0.26c0-0.31-0.26-0.36-0.26-0.36
	c-0.15-0.62,0.15-0.62,0.15-0.62C150.87,36.7,151.18,37.01,151.18,37.01L151.18,37.01z M152.16,36.7c0.1,0.52,0.83,0.93,0.83,0.93
	c0.36,0,0.21-0.52,0.21-0.52c-0.21-0.26-0.1-0.41-0.1-0.41c0.52-0.1,0.15-0.57,0.15-0.57C152.26,35.87,152.16,36.7,152.16,36.7
	L152.16,36.7z M151.44,35.87c0-0.98-0.62-0.93-0.62-0.93c-0.31,0.05-0.31,0.36-0.31,0.36c0.1,0.52-0.1,0.52-0.1,0.52
	c-0.46,0.1-0.15,0.62-0.15,0.62c0.15,0.21,0.26,0.15,0.26,0.15c0.46,0,0.83-0.26,0.83-0.26C151.59,36.29,151.44,35.87,151.44,35.87
	L151.44,35.87z M152.11,34.79c0.15,0.31,0.41,0.26,0.41,0.26c0.57,0,0.21,0.57,0.21,0.57c-0.31,0.41-0.72,0.46-0.72,0.46
	c-0.57-0.67-0.52-1.03-0.52-1.03C151.49,34.22,152.11,34.79,152.11,34.79L152.11,34.79z M151.75,37.27c0.77,0.1,0.72,0.93,0.72,0.93
	c-0.21,0.36-0.41,0.21-0.41,0.21c-0.26-0.26-0.41-0.05-0.41-0.05c0,0.46-0.36,0.15-0.36,0.15
	C151.08,37.42,151.75,37.27,151.75,37.27L151.75,37.27z"/>
<path class="st144" d="M152.47,39.33c0.77-0.21,0.77-0.93,0.77-0.93c0.06-0.02,0.12-0.05,0.18-0.08c0.56,0.35,0.7,0.8,0.7,0.8
	c0.21,0.1,0.52,0.62,0.52,0.62c-0.05-0.67-0.36-0.83-0.36-0.83c-0.12-0.39-0.42-0.73-0.55-0.86c0.4-0.49,0.4-1.25,0.4-1.25
	c0.57-0.21,1.08,0.52,1.08,0.52c-0.21,0.1-0.41,0.05-0.41,0.05c0.83,0.36,0.67,1.65,0.67,1.65c-0.36,0-0.52-0.15-0.52-0.15
	c0.62,0.72,0,2.12,0,2.12c-0.62-0.26-0.72-0.98-0.72-0.98c0.1,0.52-0.1,0.67-0.1,0.67c-0.52-0.1-0.72-0.77-0.72-0.77
	c-0.05,0.62-0.36,0.36-0.36,0.36c-0.15-0.1-0.15-0.46-0.15-0.46C152.63,39.74,152.47,39.33,152.47,39.33L152.47,39.33z"/>
<path class="st144" d="M158.92,38.76c-0.22-0.05-0.43-0.12-0.62-0.2c-0.13,0.35-0.47,1.2-0.87,1.65c0,0,0.46-0.92,0.73-1.71
	c-0.74-0.34-1.24-0.82-1.24-0.82c-0.05,0.77-0.88,0.36-0.88,0.36c-0.41,0.77,0.36,0.98,0.36,0.98c0.62-0.05,0.93-0.41,0.93-0.41
	c0.72-0.15,0.21,0.41,0.21,0.41c-0.26,0.26-0.83,0.36-0.83,0.36c-0.77,0.26-0.36,0.88-0.36,0.88c0.41,0.57,0.83,0.36,0.83,0.36
	c0.36,0.05,0.36,0.31,0.36,0.31c0.26,0.62,0.67,0.26,0.67,0.26c0.46-0.52,0.21-1.03,0.21-1.03c-0.26-0.67-0.1-0.93-0.1-0.93
	c-0.15-0.93,0.26-0.26,0.26-0.26c0.1,0.15,0.21,0.57,0.21,0.57c0.15,0.36,0.21,0.1,0.21,0.1L158.92,38.76L158.92,38.76z"/>
<path class="st144" d="M150.87,34.32l0.31-0.57c-0.05-0.62-0.67-0.98-0.67-0.98c-0.1,0.21,0,0.46,0,0.46
	c-0.31-0.46-1.24-0.77-1.24-0.77c-0.1,0.26,0,0.77,0,0.77c-0.46-0.88-1.44-0.93-1.44-0.93c0,0.41,0.21,0.67,0.21,0.67
	c-0.46-0.36-1.39-0.26-1.39-0.26c0.15,0.93,0.93,1.55,0.93,1.55l-0.1,0.26c-0.57-0.41-0.72-0.1-0.72-0.1c-0.05,0.05,0,0.15,0,0.15
	c0.31,0.52,1.44,0.98,1.44,0.98c-0.31,0.1-0.41,0.36-0.41,0.36c0.41,0.83,1.65,0.77,1.65,0.77c-0.22-0.74-0.07-1.4,0.03-1.72
	c-0.13-0.08-0.83-0.53-1.06-0.76c0,0-0.21-0.26-0.62-0.62l-0.72-0.57c0,0,0.57,0.21,0.98,0.52c0,0,0.93,0.79,1.59,1.13
	C150.14,34.19,150.87,34.32,150.87,34.32L150.87,34.32z"/>
<path class="st144" d="M171.92,37.01c0.31,1.29,0.1,2.99,0.1,2.99c5.78,2.22,15.69,0.88,15.69,0.88c1.65-0.21,1.7-0.46,1.7-0.46
	c0.62-0.05,0.52-0.98,0.52-0.98c-0.36-0.46-0.57-2.32-0.57-2.32c-1.34,0.77-8.93,0.98-8.93,0.98
	C174.3,38.25,171.92,37.01,171.92,37.01L171.92,37.01z M172.65,37.78l0.57,0.1l0.31,1.14l0.62-0.88l0.52,0.05l-0.05,0.15V40
	l0.1,0.21l-0.72-0.1l0.1-0.15v-0.88l-0.67,0.88l-0.46-1.08v0.77v0.21l-0.41-0.21l0.05-0.1l0.05-1.5V37.78L172.65,37.78z
	 M175.38,38.56c-0.88,0.83,0,1.75,0,1.75c0.52,0.46,1.19,0,1.19,0c0.77-1.08-0.05-1.75-0.05-1.75
	C175.74,38.14,175.38,38.56,175.38,38.56L175.38,38.56z M175.95,38.61c-0.88,0.41-0.26,1.34-0.26,1.34c0.21,0.46,0.52,0.1,0.52,0.1
	c0.41-0.41,0.1-1.08,0.1-1.08C176.21,38.5,175.95,38.61,175.95,38.61L175.95,38.61z M177.29,38.5h0.41l0.67,0.93l-0.05-0.72
	l-0.05-0.15l0.67,0.05l-0.1,0.15v1.75l0.05,0.15h-0.36l-0.72-1.08v0.72l0.05,0.21l-0.52-0.05l0.05-0.26l0.05-1.5L177.29,38.5
	L177.29,38.5z M180.54,38.61h0.72c0.77,0,0.93,1.03,0.93,1.03c0,1.14-1.08,1.08-1.08,1.08l-0.57-0.05l0.21-0.15l-0.05-1.75
	L180.54,38.61L180.54,38.61z M181.16,38.87v1.65c0.67-0.26,0.52-1.03,0.52-1.03C181.52,38.87,181.16,38.87,181.16,38.87
	L181.16,38.87z M182.55,38.61l0.31-0.05c0.41-0.21,0.93-0.05,0.93-0.05c0.52,0.57-0.05,1.08-0.05,1.08l0.46,0.72
	c0.15,0.05,0.21,0.15,0.21,0.15c-0.26,0.1-0.41,0-0.41,0c-0.46-0.31-0.57-0.72-0.57-0.72h-0.26v0.77l0.05,0.15h-0.52l0.05-0.15
	l-0.05-1.81L182.55,38.61L182.55,38.61z M183.17,39.54v-0.83c0.21-0.21,0.36,0.05,0.36,0.05c0.26,0.41,0,0.67,0,0.67
	C183.43,39.59,183.17,39.54,183.17,39.54L183.17,39.54z M185.44,38.25c0.98-0.05,0.98,1.24,0.98,1.24c-0.1,1.03-1.03,1.03-1.03,1.03
	c-0.88-0.1-0.93-1.19-0.93-1.19C184.62,38.14,185.44,38.25,185.44,38.25L185.44,38.25z M185.44,38.56c0.52,0.05,0.46,0.83,0.46,0.83
	c0.05,0.72-0.46,0.88-0.46,0.88c-0.26,0.05-0.36-0.31-0.36-0.31c-0.31-0.98,0.1-1.29,0.1-1.29
	C185.24,38.56,185.44,38.56,185.44,38.56L185.44,38.56z M186.73,38.19l0.72-0.05l-0.1,0.21l0.05,1.81l0.1,0.1l-0.62,0.05l0.05-0.1
	l-0.05-1.86L186.73,38.19L186.73,38.19z M187.97,38.04l0.05,0.52l0.15-0.15l0.26-0.05V40l-0.05,0.15l0.52-0.1l-0.05-0.15v-1.7h0.36
	l-0.05-0.41l-0.1,0.05l-0.93,0.21H187.97L187.97,38.04z"/>
<path class="st144" d="M166.87,35.72c0.01,0.13,0.04,0.26,0.06,0.37c0.02-0.01,0.04-0.02,0.07-0.04c0.17-0.46,0.07-0.65,0.07-0.65
	l0.15-0.1c0.07,0.18,0,0.49-0.06,0.68c0.12-0.04,0.27-0.06,0.43-0.05c0.07-0.26,0.1-0.47,0.09-0.74l-0.74-0.09
	C166.78,35.38,166.87,35.72,166.87,35.72L166.87,35.72z M167,36.32c0.13,0.39,0.33,0.7,0.55,0.93c0.24-0.18,0.19-0.88,0.16-1.14
	C167.6,36.11,167.31,36.1,167,36.32L167,36.32z M167.66,37.37c0.24,0.22,0.5,0.37,0.7,0.47c0.14-0.3,0.13-0.67,0.11-0.84
	c-0.29,0-0.6,0.1-0.73,0.14C167.72,37.25,167.69,37.33,167.66,37.37L167.66,37.37z M168.53,37.91c0.15,0.06,0.25,0.08,0.25,0.08
	c0.18,0.02,0.33,0.02,0.46,0l-0.04-0.47c-0.17-0.01-0.45,0.14-0.59,0.22C168.58,37.8,168.55,37.86,168.53,37.91L168.53,37.91z
	 M169.4,37.95c0.36-0.13,0.47-0.43,0.5-0.6c-0.22-0.08-0.39-0.06-0.49-0.04L169.4,37.95L169.4,37.95z M169.91,37.13
	c-0.02-0.7-0.24-1.19-0.55-1.53c0.04,0.13,0.17,0.62,0.08,0.93l0.26-0.1l0.05,0.15l-0.36,0.05c0.02,0.15,0.02,0.31-0.01,0.51
	C169.65,37.06,169.83,37.1,169.91,37.13L169.91,37.13z M169.23,35.47c-0.2-0.19-0.43-0.33-0.65-0.43c0.04,0.06,0.17,0.29,0.15,0.63
	C168.85,35.59,169.02,35.49,169.23,35.47L169.23,35.47z M168.28,34.93c-0.41-0.13-0.74-0.14-0.74-0.14c-0.23,0.03-0.38,0.1-0.49,0.2
	l0.76,0.05L168.28,34.93L168.28,34.93z M167.83,35.22c0.04,0.2,0.08,0.38,0.01,0.56c0.39-0.15,0.64-0.08,0.73-0.03
	c0-0.16-0.02-0.43-0.15-0.64L167.83,35.22L167.83,35.22z M168.77,35.93c0.09,0.26,0.04,0.52-0.03,0.71
	c0.28-0.13,0.46-0.12,0.56-0.09c0.02-0.13,0.04-0.5-0.11-0.79C169.09,35.75,168.94,35.78,168.77,35.93L168.77,35.93z M168.67,36.85
	c0.07,0.24,0.04,0.5-0.02,0.71c0.27-0.29,0.51-0.3,0.57-0.29c0.08-0.11,0.09-0.44,0.08-0.52C169.01,36.73,168.67,36.85,168.67,36.85
	L168.67,36.85z M168.6,36.02c-0.36-0.12-0.71,0.02-0.79,0.05c0.05,0.35,0.03,0.64-0.01,0.86c0.27-0.16,0.59-0.15,0.74-0.14
	C168.66,36.45,168.63,36.16,168.6,36.02L168.6,36.02z"/>
<path class="st144" d="M155.82,20.39l-0.88-2.79l0.46-1.24l0.52,2.01l-0.46-0.21c0.36,1.6,1.65,0.77,1.65,0.77
	c0.57-0.62,0.05-0.83,0.05-0.83c-0.67-0.36-0.77,0.05-0.77,0.05c-0.46-1.75,0.72-1.08,0.72-1.08c-0.05-1.14,0.41-1.24,0.41-1.24
	c0.62,0.21,0.62,1.19,0.62,1.19c0.67-1.08,1.08,0.05,1.08,0.05c0.05,0.15-0.05,0.46-0.05,0.46c-0.83-0.31-0.93,0.57-0.93,0.57
	c-0.1,0.57,0.93,0.72,0.93,0.72c1.24-0.36,1.24-1.7,1.24-1.7c-0.36,0.05-0.98,0.62-0.98,0.62v-2.32c0.31,0.57,1.08,0.88,1.08,0.88
	c-0.15-1.03-0.72-1.6-0.72-1.6l2.17-0.05c-0.72,0.67-0.67,1.65-0.67,1.65c0.62-0.1,0.93-0.72,0.93-0.72l0.05,2.01
	c-0.46-0.72-0.93-0.41-0.93-0.41c-0.21,1.55,1.14,1.6,1.14,1.6c0.93,0,0.98-0.77,0.98-0.77c-0.21-0.93-0.83-0.41-0.83-0.41
	c-0.26-1.55,0.88-0.88,0.88-0.88c-0.41-1.03,0.31-1.39,0.31-1.39c0.88,0.52,0.46,1.39,0.46,1.39c1.19-0.62,0.98,0.88,0.98,0.88
	c-1.14-0.52-0.98,0.67-0.98,0.67c0.52,1.24,1.55,0.31,1.55,0.31c0.21-0.31,0.26-0.62,0.26-0.62l-0.46,0.1l0.46-1.6l0.41,0.83
	l0.31-0.88l0.26,0.31l-1.5,3.77C161.04,19.46,155.82,20.39,155.82,20.39L155.82,20.39z M163.51,19.67
	c-0.26-0.05-0.52-0.15-0.46-0.26c0-0.15,0.21-0.21,0.52-0.15c0.26,0.05,0.52,0.15,0.46,0.26C164.03,19.67,163.82,19.72,163.51,19.67
	L163.51,19.67z M157.94,19.72c0.26-0.05,0.46-0.15,0.46-0.31c0-0.1-0.26-0.15-0.52-0.1c-0.31,0-0.52,0.15-0.52,0.26
	C157.37,19.67,157.63,19.77,157.94,19.72L157.94,19.72z M160.78,18.69l0.72,0.62l-0.72,0.46l-0.67-0.46L160.78,18.69L160.78,18.69z"
	/>
<path class="st144" d="M170.48,26.79c0.05-0.72,0.46-1.55,0.46-1.55l-0.61-0.65l-0.2,0.37c0.11,0.11,0.19,0.26,0.19,0.43
	c0,0.24-0.15,0.44-0.33,0.53l-0.05,0.22L170.48,26.79L170.48,26.79z M170.18,24.42l-1.5-1.6c-1.03-1.5-1.75-0.77-1.75-0.77
	l-0.72,0.26c0.57,0.36,0.88,0.98,0.88,0.98c0.62-0.1,0.67,0.21,0.67,0.21l1.6,1.93c0-0.01,0-0.02,0-0.02c0-0.31,0.21-0.57,0.46-0.57
	c0.06,0,0.12,0.01,0.18,0.04L170.18,24.42L170.18,24.42z"/>
<path class="st144" d="M168.05,24.21c-0.36-0.41-0.62-0.72-0.77-0.57c0,0,0.46,0.88,0.83,1.96c0.26,0.77,0.46,1.65,0.41,2.48
	l0.77,0.05l0.2,0.03l-0.07-0.39c-0.22-0.05-0.39-0.28-0.39-0.56c0-0.36,0.21-0.62,0.46-0.62c0.01,0,0.03,0,0.04,0l0.09-0.44
	c-0.13-0.15-0.26-0.32-0.39-0.49c-0.21-0.26-0.46-0.52-0.67-0.77C168.42,24.62,168.21,24.42,168.05,24.21L168.05,24.21z
	 M169.7,28.18l0.83,0.1c0,0-0.26-0.41-0.1-1.19c0,0-0.23-0.27-0.55-0.66l-0.06,0.28c0.12,0.11,0.2,0.28,0.2,0.48
	c0,0.24-0.16,0.46-0.36,0.53L169.7,28.18L169.7,28.18z"/>
<path class="st144" d="M164.39,34.79c0.36,0.52,1.44,0.36,1.44,0.36c0.15-0.1,0.1-0.72,0.1-0.72c-0.1-0.36-0.05-0.57-0.05-0.57
	c0.26,0.05,0.31,0.36,0.31,0.36c0,0.1-0.15,0.62-0.15,0.62c1.14-0.72,0.15-2.12,0.15-2.12c0.26-1.44,0.62-1.81,0.62-1.81
	c1.19-1.03,1.81-0.67,1.81-0.67c1.03,0,2.73,0.57,2.73,0.57c0.67,0.21,3.04,0.62,3.04,0.62c0.05-0.26,0.21-0.41,0.21-0.41
	c0.67-0.46,1.14-2.68,1.14-2.68c0-0.36,0.15-0.21,0.15-0.21c0.1,0.41,0.05,0.57,0.05,0.57c0.1,0.77-0.52,2.17-0.52,2.17
	c1.24,0.72,3.35,0.57,3.35,0.57c1.5,0,2.68-0.77,2.68-0.77c1.39-0.62,3.15-0.46,3.15-0.46l-0.05-0.31
	c-1.29-0.57-0.41-1.24-0.41-1.24l-0.52-0.72c-1.39-0.1-5.73-2.37-5.73-2.37c-3.72-2.06-5.68-1.7-5.68-1.7
	c-1.6,1.7-1.34,4.54-1.34,4.54l0.93,0.1c-0.05-1.96,1.14-2.99,1.14-2.99c0.36-0.15,0.1,0.26,0.1,0.26
	c-1.29,1.91-0.77,3.25-0.77,3.25c-0.57-0.26-3.97-0.41-3.97-0.41c-0.93-0.26-1.65,0.26-1.65,0.26c-0.62,0.52-0.88,1.34-0.88,1.34
	l-0.67,2.32C164.44,33.96,164.39,34.79,164.39,34.79L164.39,34.79z M178.79,28.75c-0.21,1.08-0.88,2.27-0.88,2.27
	c0.1,0.36,0.52-0.21,0.52-0.21c0.46-0.83,0.62-1.96,0.62-1.96C178.94,27.98,178.79,28.75,178.79,28.75L178.79,28.75z M177.08,28.03
	c-0.26,1.6-1.03,2.63-1.03,2.63c-0.15,0.41,0.31,0.1,0.31,0.1c0.67-0.93,0.88-2.63,0.88-2.63
	C177.19,27.67,177.08,28.03,177.08,28.03L177.08,28.03z M177.91,28.49c-0.05,1.08-0.98,2.27-0.98,2.27
	c-0.21,0.36,0.26,0.15,0.26,0.15c0.83-0.72,0.98-2.48,0.98-2.48C178.07,27.87,177.91,28.49,177.91,28.49L177.91,28.49z"/>
<path class="st144" d="M183.59,30.61c0.45-0.15,0.83-0.15,1.14-0.09l0.11,0.55c-0.21,0.1-0.37,0.35-0.37,0.63
	c0,0.36,0.26,0.67,0.57,0.67c0.02,0,0.03,0,0.05,0v0.8c-0.85,0.28-1.7,0.39-1.7,0.39c-0.88,0.21-0.26,0.72-0.26,0.72
	c0.46,0.41,0.57,0.77,0.57,0.77c0.41,0.46-0.26,0.83-0.26,0.83c-1.39,0.26-2.94,1.65-2.94,1.65c-1.08,0.1-2.68-0.05-2.68-0.05
	c-0.41-0.31-0.72-1.03-0.72-1.03c0.57-0.52,1.08,0.1,1.08,0.1c0.46,0.26,1.34,0.15,1.34,0.15c0.77-0.41,1.91-0.93,1.91-0.93
	c0.21-0.15,0.52-0.1,0.52-0.1c0.31-0.1-0.05-0.36-0.05-0.36c-0.77-0.52-1.39-1.29-1.39-1.29c-0.41-0.67,0-0.98,0-0.98
	C181.11,32.31,183.59,30.61,183.59,30.61L183.59,30.61z M185.04,30.61c0.56,0.23,0.81,0.67,0.81,0.67c0.31,0.67,0.21,0.83,0.21,0.83
	c-0.1,0.21,0,0.62,0,0.62c-0.21,0.14-0.46,0.25-0.72,0.35v-0.82c0.15-0.12,0.26-0.33,0.26-0.56c0-0.35-0.24-0.64-0.53-0.67
	L185.04,30.61L185.04,30.61z"/>
<path class="st144" d="M196.33,29.01c0.26-1.08,0.05-2.27,0.05-2.27c-0.36-0.77-0.72-0.93-0.72-0.93c0-2.22-1.34-2.53-1.34-2.53
	c0,0.41,0.26,0.98,0.26,0.98c0.1,0.21-0.26-0.05-0.26-0.05c-0.05-0.72-0.72-1.08-0.72-1.08c-0.52-0.31-0.77-0.67-0.77-0.67
	c-0.57,0.93,0.93,1.91,0.93,1.91c-2.32-0.1-6.35,0.72-6.35,0.72c-2.84,0.67-4.44-0.31-4.44-0.31c-1.65-0.77-1.03-2.27-1.03-2.27
	c0.77-1.55,2.48-1.39,2.48-1.39c1.44,0.05,2.48,0.41,2.48,0.41c2.48,0.67,5.11-0.1,5.11-0.1c1.29-0.62,1.7-1.91,1.7-1.91
	c-0.77,0.57-1.86,0.46-1.86,0.46C191.17,20.6,189,20.7,189,20.7c1.44-0.57,1.39-1.14,1.39-1.14c0.1-0.36,0.67-0.83,0.67-0.83
	c-0.88,0.15-1.91,0.98-1.91,0.98c-0.62,0.46-2.22,0.46-2.22,0.46c-0.26,0.1-0.72-0.05-0.72-0.05c1.03-0.31,1.08-0.72,1.08-0.72
	c-2.43-0.67-4.54,0.83-4.54,0.83c-2.06,1.7-1.44,3.41-1.44,3.41c0.36,1.65,3.3,2.17,3.3,2.17c2.73,0.15,5.99-0.31,5.99-0.31
	c2.48-0.31,3.15,0.05,3.15,0.05c0.31,0.21,0,0.26,0,0.26c-1.5-0.21-1.96,1.55-1.96,1.55c1.03-1.14,2.43-0.83,2.43-0.83
	c0.26,0.05,0,0.1,0,0.1c-0.72-0.1-1.24,0.36-1.24,0.36c0.98,0.62,1.7,0.36,1.7,0.36c0.41-0.1,0.62-0.52,0.62-0.52
	c0.62,0.93,0.57,1.65,0.31,2.17c-0.36,0.62-1.03,0.88-1.03,0.88c-1.5,0.36-3.61-0.41-3.61-0.41c-0.62-0.31-1.7-0.26-1.7-0.26
	c-0.15-0.05-0.41-0.15-0.62-0.21c-1.55-0.46-4.44-0.88-4.44-0.88l0.26,0.36c0.41,0.1,0.62,0.31,0.67,0.52
	c0.05,0.21-0.05,0.41-0.05,0.41c-0.1,0.26-0.26,0.41-0.26,0.41l0.21,0.41c1.65,0.52,1.34,1.96,1.34,1.96
	c0.15,1.29,0.93,1.81,0.93,1.81c1.75,1.55,3.56,1.29,3.56,1.29c0.62,0,0.72,0.15,0.72,0.15c0.62,0.36,0.52,2.01,0.52,2.01
	c0,0.67-0.31,1.39-0.31,1.39c0.21,0.52,1.24,0.26,1.24,0.26c0.15-0.05,0.21-0.26,0.21-0.26c0.1-0.31-0.15-0.62-0.15-0.62
	c-0.1-0.15,0-0.1,0-0.1c0.67,0.31,0.62,1.08,0.62,1.08c1.03-1.29-0.41-2.17-0.41-2.17c-0.21-0.05-0.36-0.1-0.36-0.1
	c-0.15-0.67-0.21-2.01-0.21-2.01v-0.36l-0.52-0.57c-1.44,0.36-2.48-0.15-2.48-0.15c0.05-0.31,0.05-0.67,0.05-0.67
	c0.1-0.93-0.21-3.2-0.21-3.2c0.41,0.21,2.79,0.62,2.79,0.62c0.57,0.26,1.7,0.21,1.7,0.21c1.34,0.31,0.93,1.24,0.93,1.24
	c1.08-0.88,0.15-1.5,0.15-1.5C195.87,30.3,196.18,29.68,196.33,29.01L196.33,29.01z"/>
<path class="st144" d="M124.25,29.53c-0.46-1.08,0.26-2.48,0.26-2.48c1.34-2.12,3.2-2.63,3.2-2.63c0.98-1.5,2.48-1.5,2.48-1.5
	c-0.21,0.41-0.57,0.77-0.57,0.77c0.93-0.21,1.75-0.98,1.75-0.98c0,1.19-1.08,1.65-1.08,1.65c3.97,0.52,9.39-0.1,9.39-0.1
	c2.22-0.36,2.12-2.43,2.12-2.43c-0.46-1.86-2.79-0.77-2.79-0.77c-4.9,2.84-7.28-0.93-7.28-0.93c1.19,0.46,3.51,0.46,3.51,0.46
	c-0.88-0.36-2.01-1.65-2.01-1.65c0.72,0.1,1.08,0.41,1.08,0.41c1.24,0.67,2.63,0.52,2.63,0.52c-0.41-0.46-1.08-1.24-1.08-1.24
	c0.83,0.36,1.65,0.36,1.65,0.36c0.52,0.05,0.93,0.1,0.93,0.1c0.88,0.15,1.34,0,1.34,0c2.63,0.26,2.94,2.68,2.94,2.68
	c0.26,3.1-3.3,3.35-3.3,3.35c-1.44,0.41-9.44,0.31-9.44,0.31c0.83,0.36,1.03,1.14,1.03,1.14c0.15,0.36,0.36,0.62,0.36,0.62
	c-0.83,0.05-1.65-1.03-1.65-1.03c0.26,0.52,0.93,1.29,0.93,1.29c-0.46,0.21-1.44-0.98-1.44-0.98c-1.55-1.29-2.89,0.05-2.89,0.05
	c-1.44,1.14-1.19,2.12-1.19,2.12c0,0.41,0.15,0.67,0.36,0.88c0.52,0.62,1.44,0.52,1.44,0.52c0.98,0,1.96-0.26,2.79-0.52
	c0.93-0.26,1.6-0.62,1.6-0.62c0.26,0,0.46,0.05,0.46,0.05c0.46-0.31,1.14-0.26,1.14-0.26c2.27-0.21,8.77-2.58,8.77-2.58
	c0.88-0.41,2.48-2.06,2.48-2.06c0.57,0.36,0.93,1.7,0.93,1.7c0.26-0.15,0.36-0.46,0.36-0.46c0.31,1.14,1.86,1.75,1.86,1.75
	c0.46,0.05,0.83,0.52,0.83,0.52l0.15-0.46c0.21,0.31,1.75,1.39,3.35,2.43c1.65,1.14,3.3,2.17,3.3,2.17
	c1.39-1.55,2.37-0.62,2.37-0.62c-0.21,0.21-0.46,0.15-0.46,0.15c-0.72-0.05-1.19,0.36-1.19,0.36c1.7-0.26,2.01,0.31,2.01,0.31
	c0.36,0.83-0.83,1.24-0.83,1.24c0-1.14-1.08-1.08-1.08-1.08c0.77,0.41,0.77,1.19,0.77,1.19c-0.36,0.98-1.24,0.21-1.24,0.21
	c-0.31-0.15-0.77-0.57-0.77-0.57c-2.53-0.15-4.95-1.91-4.95-1.91l-1.29,0.57c-0.83-0.62-1.39-1.44-1.65-2.01
	c-0.15-0.26-0.26-0.46-0.26-0.46c0,0.15,0,0.31,0,0.46c0.15,0.72,0.62,1.34,0.62,1.34c-2.22,2.53-6.19,0.26-6.19,0.26
	c-0.46-0.15-1.91-0.93-1.91-0.93c-4.13-0.05-6.04,3.66-6.04,3.66l-0.31,0.52c-0.31,2.32-1.03,2.32-1.03,2.32
	c0.36-0.88-0.52-1.29-0.52-1.29c-0.62,0.1-2.06,0.05-2.06,0.05c-0.93,1.65-0.15,2.84-0.15,2.84c1.81-0.05,1.03,1.39,1.03,1.39
	c-0.15,0.46-0.57,0.46-0.57,0.46c0.05-1.5-1.34-1.39-1.34-1.39c1.19,0.46,0.93,1.19,0.93,1.19c-0.31-0.05-0.62,0.46-0.62,0.46
	c-1.75-1.08-1.5-3.15-1.5-3.15c0.21-3.56,0.98-4.23,0.98-4.23c0.26-0.1,0.36,0.05,0.36,0.05c0.77,0.36,1.81,0.05,1.81,0.05
	c0.41-0.1,0.52-0.93,0.52-0.93c0.26-1.44,1.24-2.58,1.24-2.58c-0.67,0.31-4.44,1.29-4.44,1.29c-1.75,0.41-2.22,1.91-2.22,1.91
	c-1.14-1.39,0.67-2.17,0.67-2.17C124.86,30.45,124.4,30.04,124.25,29.53L124.25,29.53z M144.42,28.34c0.46,0.93,1.86,2.12,1.86,2.12
	c0.15,0.15,0.41,0.31,0.41,0.31c-0.1,0.1-0.36,0.1-0.36,0.1c-1.19-0.67-1.96-2.06-1.96-2.06C144.11,28.29,144.42,28.34,144.42,28.34
	L144.42,28.34z M142.72,29.42c0.72,0.88,0.98,1.08,0.98,1.08c0.52,0.62,1.19,0.93,1.19,0.93c-1.34,0-2.17-1.5-2.17-1.5
	c-0.21-0.41-0.15-0.57-0.15-0.57L142.72,29.42L142.72,29.42z M143.6,28.75c0.36,1.03,1.91,2.06,1.91,2.06
	c0.36,0.1,0.26,0.36,0.26,0.36c-0.31,0.05-0.41-0.1-0.41-0.1c-1.39-0.46-1.86-2.01-1.86-2.01C143.23,28.49,143.6,28.75,143.6,28.75
	L143.6,28.75z"/>
</svg>
