<?xml version="1.0" encoding="utf-8"?>
<!-- Generator: Adobe Illustrator 23.0.4, SVG Export Plug-In . SVG Version: 6.00 Build 0)  -->
<svg version="1.1" id="Layer_1" xmlns="http://www.w3.org/2000/svg" xmlns:xlink="http://www.w3.org/1999/xlink" x="0px" y="0px"
	 viewBox="0 0 192.2 205.18" style="enable-background:new 0 0 192.2 205.18;" xml:space="preserve">
<style type="text/css">
	.st0{fill:#F1F1F1;}
	.st1{fill:#8ED3E3;}
	.st2{clip-path:url(#SVGID_2_);}
	.st3{clip-path:url(#SVGID_4_);}
	.st4{clip-path:url(#SVGID_8_);}
	.st5{clip-path:url(#SVGID_10_);}
	.st6{clip-path:url(#SVGID_14_);}
	.st7{clip-path:url(#SVGID_18_);}
	.st8{fill:#FFFFFF;}
	.st9{clip-path:url(#SVGID_22_);}
	.st10{clip-path:url(#SVGID_24_);}
	.st11{clip-path:url(#SVGID_28_);}
	.st12{clip-path:url(#SVGID_30_);}
	.st13{clip-path:url(#SVGID_34_);}
	.st14{clip-path:url(#SVGID_36_);}
	.st15{clip-path:url(#SVGID_40_);}
	.st16{fill:none;stroke:#FFFFFF;stroke-width:0.5761;}
	.st17{fill:#1D1D1B;}
	.st18{clip-path:url(#SVGID_44_);}
	.st19{filter:url(#Adobe_OpacityMaskFilter);}
	.st20{mask:url(#SVGID_47_);}
	.st21{opacity:0.75;clip-path:url(#SVGID_51_);fill:#1D1D1B;}
	.st22{clip-path:url(#SVGID_53_);fill:#C2C7CB;}
	.st23{clip-path:url(#SVGID_55_);}
	.st24{clip-path:url(#SVGID_57_);}
	.st25{fill:none;stroke:#B0B0B0;stroke-miterlimit:10;}
	.st26{clip-path:url(#SVGID_61_);fill:#FFBC1A;}
	.st27{clip-path:url(#SVGID_63_);fill:#E2175A;}
	.st28{clip-path:url(#SVGID_65_);fill:#571833;}
	.st29{clip-path:url(#SVGID_67_);fill:#8ED3E3;}
	.st30{clip-path:url(#SVGID_69_);}
	.st31{clip-path:url(#SVGID_73_);fill:#C2C7CB;}
	.st32{clip-path:url(#SVGID_73_);fill:#FFFFFF;}
	.st33{clip-path:url(#SVGID_75_);}
	.st34{clip-path:url(#SVGID_77_);}
	.st35{fill:#35D7B3;}
	.st36{clip-path:url(#SVGID_83_);}
	.st37{fill:none;}
	.st38{clip-path:url(#SVGID_91_);}
	.st39{clip-path:url(#SVGID_93_);}
	.st40{fill:#E2175A;}
	.st41{fill:none;stroke:#FFFFFF;stroke-width:0.3909;stroke-miterlimit:10;}
	.st42{fill:none;stroke:#E41D60;stroke-width:0.2982;stroke-miterlimit:10;}
	.st43{fill:#E41D60;}
	.st44{fill:#FFBC1A;}
	.st45{fill:#E41D60;stroke:#E41D60;stroke-width:0.5;stroke-miterlimit:10;}
	.st46{fill:none;stroke:#571833;stroke-width:2.531;stroke-linecap:round;stroke-linejoin:round;stroke-miterlimit:10;}
	.st47{fill:#571833;}
	.st48{fill:none;stroke:#EA0045;stroke-width:2;stroke-linecap:round;stroke-linejoin:round;stroke-miterlimit:10;}
	.st49{fill:#EA0045;}
	.st50{fill:none;stroke:#FFFFFF;stroke-width:4;stroke-linecap:round;stroke-miterlimit:10;}
	.st51{fill:none;stroke:#FFFFFF;stroke-width:2;stroke-linecap:round;stroke-miterlimit:10;}
	.st52{fill:#70BCA6;}
	.st53{fill:#262636;}
	.st54{fill:#621F87;}
	.st55{fill:#74C182;}
	.st56{fill:#D35A52;}
	.st57{fill:#E58457;}
	.st58{fill:#DCE6E5;}
	.st59{fill:#75D3B5;}
	.st60{fill:#5BA594;}
	.st61{fill:#C8D5D8;}
	.st62{fill:#506D79;}
	.st63{fill:#B7C4C6;}
	.st64{fill:#67BA9F;}
	.st65{fill:#4C6073;}
	.st66{fill:none;stroke:#575756;stroke-width:1.9577;stroke-linecap:round;stroke-linejoin:round;stroke-miterlimit:10;}
	.st67{fill:#EBEBEB;}
	.st68{fill:none;stroke:#B0B0B0;stroke-width:2;stroke-linecap:round;stroke-linejoin:round;stroke-miterlimit:10;}
	.st69{fill:#E2165A;}
	.st70{fill:none;stroke:#571833;stroke-width:2.5138;stroke-miterlimit:10;}
	.st71{fill:none;stroke:#E2165A;stroke-width:1.866;stroke-linecap:round;stroke-linejoin:round;stroke-miterlimit:10;}
	.st72{fill:none;stroke:#E2165A;stroke-width:2.1723;stroke-linecap:round;stroke-linejoin:round;stroke-miterlimit:10;}
	.st73{fill:none;stroke:#000000;stroke-width:2.1723;stroke-miterlimit:10;}
	.st74{fill:none;stroke:#E2165A;stroke-width:1.9068;stroke-linecap:round;stroke-linejoin:round;stroke-miterlimit:10;}
	.st75{clip-path:url(#SVGID_99_);}
	.st76{fill:#212121;}
	.st77{fill:none;stroke:#FFFFFF;stroke-miterlimit:10;}
	.st78{fill:#002F65;}
	.st79{fill:#48AA43;}
	.st80{fill:none;stroke:#E2165A;stroke-width:2.9789;stroke-linecap:round;stroke-linejoin:round;stroke-miterlimit:10;}
	.st81{fill:none;stroke:#E2165A;stroke-width:2.3368;stroke-linecap:round;stroke-linejoin:round;stroke-miterlimit:10;}
	.st82{fill:none;stroke:#E2165A;stroke-width:2.7204;stroke-linecap:round;stroke-linejoin:round;stroke-miterlimit:10;}
	.st83{fill:none;stroke:#E2165A;stroke-width:2.3879;stroke-linecap:round;stroke-linejoin:round;stroke-miterlimit:10;}
	.st84{fill:none;stroke:#E2165A;stroke-width:1.8421;stroke-linecap:round;stroke-linejoin:round;stroke-miterlimit:10;}
	.st85{fill:#FFFFFF;stroke:#571833;stroke-width:2.8983;stroke-miterlimit:10;}
	.st86{fill:none;stroke:#571833;stroke-width:3.1481;stroke-miterlimit:10;}
	.st87{fill:none;stroke:#000000;stroke-width:2.7204;stroke-miterlimit:10;}
	.st88{clip-path:url(#SVGID_103_);}
	.st89{clip-path:url(#SVGID_105_);}
	.st90{fill:#B2C9D9;}
	.st91{fill:#00417B;}
	.st92{fill:none;stroke:#EB0045;stroke-width:2;stroke-linecap:round;stroke-linejoin:round;stroke-miterlimit:10;}
	.st93{fill:none;stroke:#FFFFFF;stroke-width:4;stroke-linecap:round;stroke-linejoin:round;stroke-miterlimit:10;}
	.st94{fill:#5CB2B2;}
	.st95{fill:none;stroke:#FFFFFF;stroke-width:2.2323;stroke-linecap:round;stroke-miterlimit:10;}
	.st96{fill:none;stroke:#EA0045;stroke-width:2;stroke-miterlimit:10;}
	.st97{fill:none;stroke:#EA0045;stroke-width:2.3277;stroke-linecap:round;stroke-linejoin:round;stroke-miterlimit:10;}
	.st98{fill:none;stroke:#EA0045;stroke-width:1.9198;stroke-linecap:round;stroke-linejoin:round;stroke-miterlimit:10;}
	.st99{fill:none;stroke:#EA0045;stroke-width:1.8057;stroke-linecap:round;stroke-linejoin:round;stroke-miterlimit:10;}
	.st100{fill:none;stroke:#EA0045;stroke-width:2.2836;stroke-linecap:round;stroke-linejoin:round;stroke-miterlimit:10;}
	.st101{fill:none;stroke:#E2165A;stroke-width:3.734;stroke-linecap:round;stroke-linejoin:round;stroke-miterlimit:10;}
	.st102{fill:none;stroke:#E2165A;stroke-width:4.3469;stroke-linecap:round;stroke-linejoin:round;stroke-miterlimit:10;}
	.st103{fill:none;stroke:#000000;stroke-width:4.2638;stroke-miterlimit:10;}
	.st104{fill:none;stroke:#571833;stroke-width:4.3412;stroke-miterlimit:10;}
	.st105{fill:#FFFFFF;stroke:#571833;stroke-width:4.3412;stroke-miterlimit:10;}
	.st106{fill:none;stroke:#571833;stroke-width:4.3957;stroke-linecap:round;stroke-linejoin:round;stroke-miterlimit:10;}
	.st107{font-family:'Oz-Bold';}
	.st108{font-size:82.7237px;}
	.st109{fill:none;stroke:#FFBC1A;stroke-width:3.655;stroke-linecap:round;stroke-linejoin:round;stroke-miterlimit:10;}
	.st110{fill:none;stroke:#FFBC1A;stroke-width:3.4496;stroke-linecap:round;stroke-linejoin:round;stroke-miterlimit:10;}
	.st111{fill:none;stroke:#000000;stroke-width:4.1579;stroke-miterlimit:10;}
	.st112{fill:none;stroke:#000000;stroke-width:4.3469;stroke-miterlimit:10;}
	.st113{fill:#FFFFFF;stroke:#000000;stroke-width:2.1734;stroke-miterlimit:10;}
	.st114{fill:none;stroke:#571833;stroke-width:4.3469;stroke-linecap:round;stroke-linejoin:round;stroke-miterlimit:10;}
	.st115{fill:none;stroke:#571833;stroke-width:4.3469;stroke-linecap:round;stroke-miterlimit:10;}
	.st116{fill:none;stroke:#571833;stroke-width:4.3469;stroke-miterlimit:10;}
	.st117{fill:#FFFFFF;stroke:#571833;stroke-width:4.3469;stroke-miterlimit:10;}
	.st118{fill:#FFFFFF;stroke:#571833;stroke-width:2.1734;stroke-linecap:round;stroke-miterlimit:10;}
	.st119{fill:none;stroke:#571833;stroke-width:3.2602;stroke-linecap:round;stroke-miterlimit:10;}
	.st120{fill:none;stroke:#FFBC1A;stroke-width:6.024;stroke-linecap:round;stroke-linejoin:round;stroke-miterlimit:10;}
	.st121{fill:none;stroke:#FFBC1A;stroke-width:3.5192;stroke-linecap:round;stroke-linejoin:round;stroke-miterlimit:10;}
	.st122{fill:none;stroke:#EA0045;stroke-width:2.531;stroke-linecap:round;stroke-linejoin:round;stroke-miterlimit:10;}
	.st123{fill:none;stroke:#E2165A;stroke-width:2.4189;stroke-linecap:round;stroke-linejoin:round;stroke-miterlimit:10;}
	.st124{fill:none;stroke:#E2165A;stroke-width:2.8159;stroke-linecap:round;stroke-linejoin:round;stroke-miterlimit:10;}
	.st125{fill:none;stroke:#E2165A;stroke-width:2.4718;stroke-linecap:round;stroke-linejoin:round;stroke-miterlimit:10;}
	.st126{fill:#FFFFFF;stroke:#571833;stroke-width:3;stroke-miterlimit:10;}
	.st127{fill:none;stroke:#571833;stroke-width:3.2586;stroke-miterlimit:10;}
	.st128{fill:none;stroke:#000000;stroke-width:2.8159;stroke-miterlimit:10;}
	.st129{fill:none;stroke:#571833;stroke-width:3.2586;stroke-linecap:round;stroke-linejoin:round;stroke-miterlimit:10;}
	.st130{fill:#FFFFFF;stroke:#FFBC1A;stroke-width:2.4804;stroke-linecap:round;stroke-linejoin:round;stroke-miterlimit:10;}
	.st131{fill:none;stroke:#571833;stroke-width:2.9938;stroke-linecap:round;stroke-linejoin:round;stroke-miterlimit:10;}
	.st132{fill:#FFFFFF;stroke:#571833;stroke-width:2.9938;stroke-linecap:round;stroke-linejoin:round;stroke-miterlimit:10;}
	.st133{fill:none;stroke:#571833;stroke-width:3.6163;stroke-linecap:round;stroke-linejoin:round;stroke-miterlimit:10;}
	.st134{fill:#FFFFFF;stroke:#571833;stroke-width:2.0812;stroke-linecap:round;stroke-linejoin:round;stroke-miterlimit:10;}
	.st135{fill:none;stroke:#571833;stroke-width:2.0812;stroke-linecap:round;stroke-linejoin:round;stroke-miterlimit:10;}
	.st136{fill:none;stroke:#571833;stroke-width:4.7006;stroke-miterlimit:10;}
	.st137{fill:none;stroke:#E2165A;stroke-width:3.4893;stroke-linecap:round;stroke-linejoin:round;stroke-miterlimit:10;}
	.st138{fill:none;stroke:#E2165A;stroke-width:4.062;stroke-linecap:round;stroke-linejoin:round;stroke-miterlimit:10;}
	.st139{fill:none;stroke:#E2165A;stroke-width:3.5656;stroke-linecap:round;stroke-linejoin:round;stroke-miterlimit:10;}
	.st140{fill:none;stroke:#000000;stroke-width:4.062;stroke-miterlimit:10;}
	.st141{fill:#FFFFFF;stroke:#571833;stroke-width:3.0022;stroke-linecap:round;stroke-linejoin:round;stroke-miterlimit:10;}
	.st142{fill:none;stroke:#FFBC1A;stroke-width:3.4159;stroke-linecap:round;stroke-linejoin:round;stroke-miterlimit:10;}
	.st143{fill:none;stroke:#EA0045;stroke-width:2.4784;stroke-linecap:round;stroke-linejoin:round;stroke-miterlimit:10;}
	
		.st144{fill:none;stroke:#EA0045;stroke-width:2.4784;stroke-linecap:round;stroke-linejoin:round;stroke-miterlimit:10;stroke-dasharray:6.1961,6.1961;}
	.st145{fill:none;stroke:#FFFFFF;stroke-width:1.6;stroke-miterlimit:10;}
</style>
<path class="st101" d="M10.17,100.47c0.28-3.06,0.75-6.06,1.38-9"/>
<path class="st101" d="M15.16,135.66c-2.74-6.94-4.49-14.37-5.09-22.14c-0.04-0.54-0.08-1.07-0.11-1.61"/>
<path class="st102" d="M151.13,180.41c-3.08,2.2-6.31,4.21-9.67,6.01"/>
<path class="st102" d="M169.89,162.36c-2.03,2.63-4.21,5.14-6.52,7.52"/>
<path class="st102" d="M188.4,112.97c-0.85,15.27-5.54,29.51-13.14,41.77"/>
<path class="st102" d="M187.28,92.95c0.47,2.8,0.82,5.64,1.03,8.51"/>
<path class="st102" d="M173.74,58.81c5.04,7.59,8.94,16,11.47,24.98"/>
<path class="st102" d="M144.23,31.04c4.49,2.62,8.74,5.62,12.69,8.96c2.99,2.53,6.33,5.85,8.95,8.74"/>
<path class="st102" d="M133.08,190.36c-10.36,4.23-21.71,6.56-33.59,6.56c-31.98,0-60.01-16.87-75.7-42.2"/>
<rect x="-14.94" y="11.28" class="st37" width="99.74" height="91.97"/>
<text transform="matrix(1 0 0 1 12.0963 69.2683)" class="st69 st107 st108">2</text>
<g>
	<path class="st1" d="M68.99,109.79V32.2c0-6.48,4.99-11.74,11.15-11.74h52.32c6.16,0,11.15,5.26,11.15,11.74v119.26
		c0,6.48-4.99,11.74-11.15,11.74H80.14c-2.31,0-9.11-0.39-10.89-1.66"/>
	<path class="st104" d="M69.26,161.54c1.93,1.33,4.29,2.08,6.81,2.08h57.18c6.73,0,12.19-5.46,12.19-12.19V27.67
		c0-6.73-5.46-12.19-12.19-12.19H76.07c-6.73,0-12.19,5.46-12.19,12.19v80.52v40.97C63.88,149.16,63.23,157.39,69.26,161.54z"/>
	<path class="st105" d="M137.89,147.29H72.13c-0.43,0-0.78-0.35-0.78-0.78V34.61c0-0.43,0.35-0.78,0.78-0.78h65.76
		c0.43,0,0.78,0.35,0.78,0.78v111.91C138.67,146.94,138.32,147.29,137.89,147.29z"/>
	<circle class="st47" cx="105.01" cy="156.02" r="3.58"/>
	<rect x="83.73" y="67.67" class="st109" width="42.61" height="7.88"/>
	<rect x="83.73" y="83.76" class="st109" width="42.61" height="7.88"/>
	<path class="st47" d="M114.41,104.94H93.84c-0.24,0-0.44-0.2-0.44-0.44v-5.04c0-0.24,0.2-0.44,0.44-0.44h20.57
		c0.24,0,0.44,0.2,0.44,0.44v5.04C114.85,104.75,114.65,104.94,114.41,104.94z"/>
	<circle class="st47" cx="94.14" cy="25.47" r="2.37"/>
	<line class="st106" x1="100.18" y1="25.47" x2="116.48" y2="25.47"/>
</g>
</svg>
