<?xml version="1.0" encoding="utf-8"?>
<!-- Generator: Adobe Illustrator 23.0.4, SVG Export Plug-In . SVG Version: 6.00 Build 0)  -->
<svg version="1.1" id="Layer_1" xmlns="http://www.w3.org/2000/svg" xmlns:xlink="http://www.w3.org/1999/xlink" x="0px" y="0px"
	 viewBox="0 0 179.97 179.12" style="enable-background:new 0 0 179.97 179.12;" xml:space="preserve">
<style type="text/css">
	.st0{fill:#F1F1F1;}
	.st1{fill:#8ED3E3;}
	.st2{clip-path:url(#SVGID_2_);}
	.st3{clip-path:url(#SVGID_4_);}
	.st4{clip-path:url(#SVGID_8_);}
	.st5{clip-path:url(#SVGID_10_);}
	.st6{clip-path:url(#SVGID_14_);}
	.st7{clip-path:url(#SVGID_18_);}
	.st8{fill:#FFFFFF;}
	.st9{clip-path:url(#SVGID_22_);}
	.st10{clip-path:url(#SVGID_24_);}
	.st11{clip-path:url(#SVGID_28_);}
	.st12{clip-path:url(#SVGID_30_);}
	.st13{clip-path:url(#SVGID_34_);}
	.st14{clip-path:url(#SVGID_36_);}
	.st15{clip-path:url(#SVGID_40_);}
	.st16{fill:none;stroke:#FFFFFF;stroke-width:0.5761;}
	.st17{fill:#1D1D1B;}
	.st18{clip-path:url(#SVGID_44_);}
	.st19{filter:url(#Adobe_OpacityMaskFilter);}
	.st20{mask:url(#SVGID_47_);}
	.st21{opacity:0.75;clip-path:url(#SVGID_51_);fill:#1D1D1B;}
	.st22{clip-path:url(#SVGID_53_);fill:#C2C7CB;}
	.st23{clip-path:url(#SVGID_55_);}
	.st24{clip-path:url(#SVGID_57_);}
	.st25{fill:none;stroke:#B0B0B0;stroke-miterlimit:10;}
	.st26{clip-path:url(#SVGID_61_);fill:#FFBC1A;}
	.st27{clip-path:url(#SVGID_63_);fill:#E2175A;}
	.st28{clip-path:url(#SVGID_65_);fill:#571833;}
	.st29{clip-path:url(#SVGID_67_);fill:#8ED3E3;}
	.st30{clip-path:url(#SVGID_69_);}
	.st31{clip-path:url(#SVGID_73_);fill:#C2C7CB;}
	.st32{clip-path:url(#SVGID_73_);fill:#FFFFFF;}
	.st33{clip-path:url(#SVGID_75_);}
	.st34{clip-path:url(#SVGID_77_);}
	.st35{fill:#35D7B3;}
	.st36{clip-path:url(#SVGID_83_);}
	.st37{fill:none;}
	.st38{clip-path:url(#SVGID_91_);}
	.st39{clip-path:url(#SVGID_93_);}
	.st40{fill:#E2175A;}
	.st41{fill:none;stroke:#FFFFFF;stroke-width:0.3909;stroke-miterlimit:10;}
	.st42{fill:none;stroke:#E41D60;stroke-width:0.2982;stroke-miterlimit:10;}
	.st43{fill:#E41D60;}
	.st44{fill:#FFBC1A;}
	.st45{fill:#E41D60;stroke:#E41D60;stroke-width:0.5;stroke-miterlimit:10;}
	.st46{fill:none;stroke:#571833;stroke-width:2.531;stroke-linecap:round;stroke-linejoin:round;stroke-miterlimit:10;}
	.st47{fill:#571833;}
	.st48{fill:none;stroke:#EA0045;stroke-width:2;stroke-linecap:round;stroke-linejoin:round;stroke-miterlimit:10;}
	.st49{fill:#EA0045;}
	.st50{fill:none;stroke:#FFFFFF;stroke-width:4;stroke-linecap:round;stroke-miterlimit:10;}
	.st51{fill:none;stroke:#FFFFFF;stroke-width:2;stroke-linecap:round;stroke-miterlimit:10;}
	.st52{fill:#70BCA6;}
	.st53{fill:#262636;}
	.st54{fill:#621F87;}
	.st55{fill:#74C182;}
	.st56{fill:#D35A52;}
	.st57{fill:#E58457;}
	.st58{fill:#DCE6E5;}
	.st59{fill:#75D3B5;}
	.st60{fill:#5BA594;}
	.st61{fill:#C8D5D8;}
	.st62{fill:#506D79;}
	.st63{fill:#B7C4C6;}
	.st64{fill:#67BA9F;}
	.st65{fill:#4C6073;}
	.st66{fill:none;stroke:#575756;stroke-width:1.9577;stroke-linecap:round;stroke-linejoin:round;stroke-miterlimit:10;}
	.st67{fill:#EBEBEB;}
	.st68{fill:none;stroke:#B0B0B0;stroke-width:2;stroke-linecap:round;stroke-linejoin:round;stroke-miterlimit:10;}
	.st69{fill:#E2165A;}
	.st70{fill:none;stroke:#571833;stroke-width:2.5138;stroke-miterlimit:10;}
	.st71{fill:none;stroke:#E2165A;stroke-width:1.866;stroke-linecap:round;stroke-linejoin:round;stroke-miterlimit:10;}
	.st72{fill:none;stroke:#E2165A;stroke-width:2.1723;stroke-linecap:round;stroke-linejoin:round;stroke-miterlimit:10;}
	.st73{fill:none;stroke:#000000;stroke-width:2.1723;stroke-miterlimit:10;}
	.st74{fill:none;stroke:#E2165A;stroke-width:1.9068;stroke-linecap:round;stroke-linejoin:round;stroke-miterlimit:10;}
	.st75{clip-path:url(#SVGID_99_);}
	.st76{fill:#212121;}
	.st77{fill:none;stroke:#FFFFFF;stroke-miterlimit:10;}
	.st78{fill:#002F65;}
	.st79{fill:#48AA43;}
	.st80{fill:none;stroke:#E2165A;stroke-width:2.9789;stroke-linecap:round;stroke-linejoin:round;stroke-miterlimit:10;}
	.st81{fill:none;stroke:#E2165A;stroke-width:2.3368;stroke-linecap:round;stroke-linejoin:round;stroke-miterlimit:10;}
	.st82{fill:none;stroke:#E2165A;stroke-width:2.7204;stroke-linecap:round;stroke-linejoin:round;stroke-miterlimit:10;}
	.st83{fill:none;stroke:#E2165A;stroke-width:2.3879;stroke-linecap:round;stroke-linejoin:round;stroke-miterlimit:10;}
	.st84{fill:none;stroke:#E2165A;stroke-width:1.8421;stroke-linecap:round;stroke-linejoin:round;stroke-miterlimit:10;}
	.st85{fill:#FFFFFF;stroke:#571833;stroke-width:2.8983;stroke-miterlimit:10;}
	.st86{fill:none;stroke:#571833;stroke-width:3.1481;stroke-miterlimit:10;}
	.st87{fill:none;stroke:#000000;stroke-width:2.7204;stroke-miterlimit:10;}
	.st88{clip-path:url(#SVGID_103_);}
	.st89{clip-path:url(#SVGID_105_);}
	.st90{fill:#B2C9D9;}
	.st91{fill:#00417B;}
	.st92{fill:none;stroke:#EB0045;stroke-width:2;stroke-linecap:round;stroke-linejoin:round;stroke-miterlimit:10;}
	.st93{fill:none;stroke:#FFFFFF;stroke-width:4;stroke-linecap:round;stroke-linejoin:round;stroke-miterlimit:10;}
	.st94{fill:#5CB2B2;}
	.st95{fill:none;stroke:#FFFFFF;stroke-width:2.2323;stroke-linecap:round;stroke-miterlimit:10;}
	.st96{fill:none;stroke:#EA0045;stroke-width:2;stroke-miterlimit:10;}
	.st97{fill:none;stroke:#EA0045;stroke-width:2.3277;stroke-linecap:round;stroke-linejoin:round;stroke-miterlimit:10;}
	.st98{fill:none;stroke:#EA0045;stroke-width:1.9198;stroke-linecap:round;stroke-linejoin:round;stroke-miterlimit:10;}
	.st99{fill:none;stroke:#EA0045;stroke-width:1.8057;stroke-linecap:round;stroke-linejoin:round;stroke-miterlimit:10;}
	.st100{fill:none;stroke:#EA0045;stroke-width:2.2836;stroke-linecap:round;stroke-linejoin:round;stroke-miterlimit:10;}
	.st101{fill:none;stroke:#E2165A;stroke-width:3.734;stroke-linecap:round;stroke-linejoin:round;stroke-miterlimit:10;}
	.st102{fill:none;stroke:#E2165A;stroke-width:4.3469;stroke-linecap:round;stroke-linejoin:round;stroke-miterlimit:10;}
	.st103{fill:none;stroke:#000000;stroke-width:4.2638;stroke-miterlimit:10;}
	.st104{fill:none;stroke:#571833;stroke-width:4.3412;stroke-miterlimit:10;}
	.st105{fill:#FFFFFF;stroke:#571833;stroke-width:4.3412;stroke-miterlimit:10;}
	.st106{fill:none;stroke:#571833;stroke-width:4.3957;stroke-linecap:round;stroke-linejoin:round;stroke-miterlimit:10;}
	.st107{fill:none;stroke:#FFBC1A;stroke-width:3.655;stroke-linecap:round;stroke-linejoin:round;stroke-miterlimit:10;}
	.st108{fill:none;stroke:#FFBC1A;stroke-width:3.4496;stroke-linecap:round;stroke-linejoin:round;stroke-miterlimit:10;}
	.st109{fill:none;stroke:#000000;stroke-width:4.1579;stroke-miterlimit:10;}
	.st110{fill:none;stroke:#000000;stroke-width:4.3469;stroke-miterlimit:10;}
	.st111{fill:#FFFFFF;stroke:#000000;stroke-width:2.1734;stroke-miterlimit:10;}
	.st112{fill:none;stroke:#571833;stroke-width:4.3469;stroke-linecap:round;stroke-linejoin:round;stroke-miterlimit:10;}
	.st113{fill:none;stroke:#571833;stroke-width:4.3469;stroke-linecap:round;stroke-miterlimit:10;}
	.st114{fill:none;stroke:#571833;stroke-width:4.3469;stroke-miterlimit:10;}
	.st115{fill:#FFFFFF;stroke:#571833;stroke-width:4.3469;stroke-miterlimit:10;}
	.st116{fill:#FFFFFF;stroke:#571833;stroke-width:2.1734;stroke-linecap:round;stroke-miterlimit:10;}
	.st117{fill:none;stroke:#571833;stroke-width:3.2602;stroke-linecap:round;stroke-miterlimit:10;}
	.st118{fill:none;stroke:#FFBC1A;stroke-width:6.024;stroke-linecap:round;stroke-linejoin:round;stroke-miterlimit:10;}
	.st119{fill:none;stroke:#FFBC1A;stroke-width:3.5192;stroke-linecap:round;stroke-linejoin:round;stroke-miterlimit:10;}
	.st120{fill:none;stroke:#EA0045;stroke-width:2.531;stroke-linecap:round;stroke-linejoin:round;stroke-miterlimit:10;}
	.st121{fill:none;stroke:#E2165A;stroke-width:2.4189;stroke-linecap:round;stroke-linejoin:round;stroke-miterlimit:10;}
	.st122{fill:none;stroke:#E2165A;stroke-width:2.8159;stroke-linecap:round;stroke-linejoin:round;stroke-miterlimit:10;}
	.st123{fill:none;stroke:#E2165A;stroke-width:2.4718;stroke-linecap:round;stroke-linejoin:round;stroke-miterlimit:10;}
	.st124{fill:#FFFFFF;stroke:#571833;stroke-width:3;stroke-miterlimit:10;}
	.st125{fill:none;stroke:#571833;stroke-width:3.2586;stroke-miterlimit:10;}
	.st126{fill:none;stroke:#000000;stroke-width:2.8159;stroke-miterlimit:10;}
	.st127{fill:none;stroke:#571833;stroke-width:3.2586;stroke-linecap:round;stroke-linejoin:round;stroke-miterlimit:10;}
	.st128{fill:#FFFFFF;stroke:#FFBC1A;stroke-width:2.4804;stroke-linecap:round;stroke-linejoin:round;stroke-miterlimit:10;}
	.st129{fill:none;stroke:#571833;stroke-width:2.9938;stroke-linecap:round;stroke-linejoin:round;stroke-miterlimit:10;}
	.st130{fill:#FFFFFF;stroke:#571833;stroke-width:2.9938;stroke-linecap:round;stroke-linejoin:round;stroke-miterlimit:10;}
	.st131{fill:none;stroke:#571833;stroke-width:3.6163;stroke-linecap:round;stroke-linejoin:round;stroke-miterlimit:10;}
	.st132{fill:#FFFFFF;stroke:#571833;stroke-width:2.0812;stroke-linecap:round;stroke-linejoin:round;stroke-miterlimit:10;}
	.st133{fill:none;stroke:#571833;stroke-width:2.0812;stroke-linecap:round;stroke-linejoin:round;stroke-miterlimit:10;}
	.st134{fill:none;stroke:#571833;stroke-width:4.7006;stroke-miterlimit:10;}
	.st135{fill:none;stroke:#E2165A;stroke-width:3.4893;stroke-linecap:round;stroke-linejoin:round;stroke-miterlimit:10;}
	.st136{fill:none;stroke:#E2165A;stroke-width:4.062;stroke-linecap:round;stroke-linejoin:round;stroke-miterlimit:10;}
	.st137{fill:none;stroke:#E2165A;stroke-width:3.5656;stroke-linecap:round;stroke-linejoin:round;stroke-miterlimit:10;}
	.st138{fill:none;stroke:#000000;stroke-width:4.062;stroke-miterlimit:10;}
	.st139{fill:#FFFFFF;stroke:#571833;stroke-width:3.0022;stroke-linecap:round;stroke-linejoin:round;stroke-miterlimit:10;}
	.st140{fill:none;stroke:#FFBC1A;stroke-width:3.4159;stroke-linecap:round;stroke-linejoin:round;stroke-miterlimit:10;}
	.st141{fill:none;stroke:#EA0045;stroke-width:2.4784;stroke-linecap:round;stroke-linejoin:round;stroke-miterlimit:10;}
	
		.st142{fill:none;stroke:#EA0045;stroke-width:2.4784;stroke-linecap:round;stroke-linejoin:round;stroke-miterlimit:10;stroke-dasharray:6.1961,6.1961;}
	.st143{fill:none;stroke:#FFFFFF;stroke-width:1.6;stroke-miterlimit:10;}
</style>
<g>
	<path class="st1" d="M128.92,52.11c-10.84-5.03-22.71-3.47-31.75,4.17c-2.4,1.99-5.87,1.99-8.27,0c-9.04-7.63-20.89-9.19-31.7-4.17
		c-12.01,5.58-19.48,17.58-19.48,31.32c0,20.74,18.23,35.16,31.55,45.68l0.05,0.04c5.09,4.03,8.75,6.83,11.7,9.07
		c1.48,1.13,2.74,2.1,3.86,2.97c4.79,3.77,11.54,3.73,16.29-0.1c2.18-1.74,5.03-3.9,8.94-6.89c1.9-1.44,4.08-3.1,6.59-5.03
		c11.06-8.44,31.64-24.17,31.64-45.97c0-13.63-7.44-25.55-19.41-31.11"/>
	<path class="st134" d="M129.36,44.8c-11.91-5.53-24.95-3.81-34.88,4.58c-2.63,2.19-6.45,2.19-9.08,0
		C75.46,41,62.44,39.29,50.56,44.8c-13.2,6.13-21.4,19.31-21.4,34.4c0,22.78,20.03,38.62,34.65,50.19l0.06,0.05
		c5.59,4.42,9.62,7.5,12.85,9.97c1.63,1.24,3.01,2.3,4.24,3.26c5.26,4.14,12.68,4.09,17.89-0.11c2.39-1.92,5.53-4.29,9.83-7.57
		c2.09-1.58,4.48-3.4,7.24-5.53c12.15-9.28,34.75-26.55,34.75-50.49c0-14.98-8.17-28.07-21.33-34.18"/>
	<path class="st135" d="M7.59,82.98c0.26-2.86,0.7-5.66,1.29-8.41"/>
	<path class="st135" d="M12.25,115.86c-2.56-6.48-4.2-13.43-4.75-20.68c-0.04-0.5-0.07-1-0.1-1.51"/>
	<path class="st136" d="M120.62,166.98c-9.69,3.95-20.28,6.13-31.39,6.13c-29.88,0-56.08-15.76-70.74-39.43"/>
	<path class="st136" d="M137.49,157.68c-2.88,2.06-5.9,3.94-9.04,5.62"/>
	<path class="st136" d="M155.02,140.81c-1.9,2.46-3.94,4.8-6.09,7.03"/>
	<path class="st136" d="M172.23,94.66c-0.79,14.27-5.18,27.57-12.28,39.03"/>
	<path class="st136" d="M171.19,75.95c0.44,2.61,0.77,5.27,0.96,7.96"/>
	<path class="st136" d="M158.54,44.05c4.71,7.09,8.36,14.95,10.72,23.34"/>
	<path class="st136" d="M133.45,19.56c3.31,2.08,6.47,4.4,9.44,6.91c2.79,2.36,5.91,5.47,8.37,8.17"/>
	<path class="st137" d="M46.26,18.88c4.86-3.1,10.06-5.7,15.54-7.73c8.89-3.3,18.51-5.1,28.55-5.1c13.02,0,25.34,3.03,36.28,8.43"/>
	<path class="st137" d="M13.7,58.66c0.81-2.11,1.71-4.18,2.69-6.21c4.37-9.03,10.34-17.14,17.55-23.96"/>
	<path class="st139" d="M117.16,107.95H99.33l-7.02,8.96c-1.07,1.37-3.13,1.41-4.26,0.09l-7.74-9.05H62.37
		c-2.85,0-5.15-2.31-5.15-5.15V73.53c0-2.85,2.31-5.15,5.15-5.15h54.79c2.85,0,5.15,2.31,5.15,5.15v29.27
		C122.31,105.64,120.01,107.95,117.16,107.95z"/>
	<line class="st140" x1="67.43" y1="79.11" x2="112.78" y2="79.11"/>
	<line class="st140" x1="67.43" y1="88.02" x2="91.27" y2="88.02"/>
	<line class="st140" x1="98.88" y1="88.02" x2="112.49" y2="88.02"/>
	<line class="st140" x1="112.49" y1="96.93" x2="88.65" y2="96.93"/>
	<line class="st140" x1="81.04" y1="96.93" x2="67.43" y2="96.93"/>
</g>
</svg>
