<?xml version="1.0" encoding="utf-8"?>
<!-- Generator: Adobe Illustrator 23.0.4, SVG Export Plug-In . SVG Version: 6.00 Build 0)  -->
<svg version="1.1" id="Layer_1" xmlns="http://www.w3.org/2000/svg" xmlns:xlink="http://www.w3.org/1999/xlink" x="0px" y="0px"
	 viewBox="0 0 192.2 205.18" style="enable-background:new 0 0 192.2 205.18;" xml:space="preserve">
<style type="text/css">
	.st0{fill:#F1F1F1;}
	.st1{fill:#8ED3E3;}
	.st2{clip-path:url(#SVGID_2_);}
	.st3{clip-path:url(#SVGID_4_);}
	.st4{clip-path:url(#SVGID_8_);}
	.st5{clip-path:url(#SVGID_10_);}
	.st6{clip-path:url(#SVGID_14_);}
	.st7{clip-path:url(#SVGID_18_);}
	.st8{fill:#FFFFFF;}
	.st9{clip-path:url(#SVGID_22_);}
	.st10{clip-path:url(#SVGID_24_);}
	.st11{clip-path:url(#SVGID_28_);}
	.st12{clip-path:url(#SVGID_30_);}
	.st13{clip-path:url(#SVGID_34_);}
	.st14{clip-path:url(#SVGID_36_);}
	.st15{clip-path:url(#SVGID_40_);}
	.st16{fill:none;stroke:#FFFFFF;stroke-width:0.5761;}
	.st17{fill:#1D1D1B;}
	.st18{clip-path:url(#SVGID_44_);}
	.st19{filter:url(#Adobe_OpacityMaskFilter);}
	.st20{mask:url(#SVGID_47_);}
	.st21{opacity:0.75;clip-path:url(#SVGID_51_);fill:#1D1D1B;}
	.st22{clip-path:url(#SVGID_53_);fill:#C2C7CB;}
	.st23{clip-path:url(#SVGID_55_);}
	.st24{clip-path:url(#SVGID_57_);}
	.st25{fill:none;stroke:#B0B0B0;stroke-miterlimit:10;}
	.st26{clip-path:url(#SVGID_61_);fill:#FFBC1A;}
	.st27{clip-path:url(#SVGID_63_);fill:#E2175A;}
	.st28{clip-path:url(#SVGID_65_);fill:#571833;}
	.st29{clip-path:url(#SVGID_67_);fill:#8ED3E3;}
	.st30{clip-path:url(#SVGID_69_);}
	.st31{clip-path:url(#SVGID_73_);fill:#C2C7CB;}
	.st32{clip-path:url(#SVGID_73_);fill:#FFFFFF;}
	.st33{clip-path:url(#SVGID_75_);}
	.st34{clip-path:url(#SVGID_77_);}
	.st35{fill:#35D7B3;}
	.st36{clip-path:url(#SVGID_83_);}
	.st37{fill:none;}
	.st38{clip-path:url(#SVGID_91_);}
	.st39{clip-path:url(#SVGID_93_);}
	.st40{fill:#E2175A;}
	.st41{fill:none;stroke:#FFFFFF;stroke-width:0.3909;stroke-miterlimit:10;}
	.st42{fill:none;stroke:#E41D60;stroke-width:0.2982;stroke-miterlimit:10;}
	.st43{fill:#E41D60;}
	.st44{fill:#FFBC1A;}
	.st45{fill:#E41D60;stroke:#E41D60;stroke-width:0.5;stroke-miterlimit:10;}
	.st46{fill:none;stroke:#571833;stroke-width:2.531;stroke-linecap:round;stroke-linejoin:round;stroke-miterlimit:10;}
	.st47{fill:#571833;}
	.st48{fill:none;stroke:#EA0045;stroke-width:2;stroke-linecap:round;stroke-linejoin:round;stroke-miterlimit:10;}
	.st49{fill:#EA0045;}
	.st50{fill:none;stroke:#FFFFFF;stroke-width:4;stroke-linecap:round;stroke-miterlimit:10;}
	.st51{fill:none;stroke:#FFFFFF;stroke-width:2;stroke-linecap:round;stroke-miterlimit:10;}
	.st52{fill:#70BCA6;}
	.st53{fill:#262636;}
	.st54{fill:#621F87;}
	.st55{fill:#74C182;}
	.st56{fill:#D35A52;}
	.st57{fill:#E58457;}
	.st58{fill:#DCE6E5;}
	.st59{fill:#75D3B5;}
	.st60{fill:#5BA594;}
	.st61{fill:#C8D5D8;}
	.st62{fill:#506D79;}
	.st63{fill:#B7C4C6;}
	.st64{fill:#67BA9F;}
	.st65{fill:#4C6073;}
	.st66{fill:none;stroke:#575756;stroke-width:1.9577;stroke-linecap:round;stroke-linejoin:round;stroke-miterlimit:10;}
	.st67{fill:#EBEBEB;}
	.st68{fill:none;stroke:#B0B0B0;stroke-width:2;stroke-linecap:round;stroke-linejoin:round;stroke-miterlimit:10;}
	.st69{fill:#E2165A;}
	.st70{fill:none;stroke:#571833;stroke-width:2.5138;stroke-miterlimit:10;}
	.st71{fill:none;stroke:#E2165A;stroke-width:1.866;stroke-linecap:round;stroke-linejoin:round;stroke-miterlimit:10;}
	.st72{fill:none;stroke:#E2165A;stroke-width:2.1723;stroke-linecap:round;stroke-linejoin:round;stroke-miterlimit:10;}
	.st73{fill:none;stroke:#000000;stroke-width:2.1723;stroke-miterlimit:10;}
	.st74{fill:none;stroke:#E2165A;stroke-width:1.9068;stroke-linecap:round;stroke-linejoin:round;stroke-miterlimit:10;}
	.st75{clip-path:url(#SVGID_99_);}
	.st76{fill:#212121;}
	.st77{fill:none;stroke:#FFFFFF;stroke-miterlimit:10;}
	.st78{fill:#002F65;}
	.st79{fill:#48AA43;}
	.st80{fill:none;stroke:#E2165A;stroke-width:2.9789;stroke-linecap:round;stroke-linejoin:round;stroke-miterlimit:10;}
	.st81{fill:none;stroke:#E2165A;stroke-width:2.3368;stroke-linecap:round;stroke-linejoin:round;stroke-miterlimit:10;}
	.st82{fill:none;stroke:#E2165A;stroke-width:2.7204;stroke-linecap:round;stroke-linejoin:round;stroke-miterlimit:10;}
	.st83{fill:none;stroke:#E2165A;stroke-width:2.3879;stroke-linecap:round;stroke-linejoin:round;stroke-miterlimit:10;}
	.st84{fill:none;stroke:#E2165A;stroke-width:1.8421;stroke-linecap:round;stroke-linejoin:round;stroke-miterlimit:10;}
	.st85{fill:#FFFFFF;stroke:#571833;stroke-width:2.8983;stroke-miterlimit:10;}
	.st86{fill:none;stroke:#571833;stroke-width:3.1481;stroke-miterlimit:10;}
	.st87{fill:none;stroke:#000000;stroke-width:2.7204;stroke-miterlimit:10;}
	.st88{clip-path:url(#SVGID_103_);}
	.st89{clip-path:url(#SVGID_105_);}
	.st90{fill:#B2C9D9;}
	.st91{fill:#00417B;}
	.st92{fill:none;stroke:#EB0045;stroke-width:2;stroke-linecap:round;stroke-linejoin:round;stroke-miterlimit:10;}
	.st93{fill:none;stroke:#FFFFFF;stroke-width:4;stroke-linecap:round;stroke-linejoin:round;stroke-miterlimit:10;}
	.st94{fill:#5CB2B2;}
	.st95{fill:none;stroke:#FFFFFF;stroke-width:2.2323;stroke-linecap:round;stroke-miterlimit:10;}
	.st96{fill:none;stroke:#EA0045;stroke-width:2;stroke-miterlimit:10;}
	.st97{fill:none;stroke:#EA0045;stroke-width:2.3277;stroke-linecap:round;stroke-linejoin:round;stroke-miterlimit:10;}
	.st98{fill:none;stroke:#EA0045;stroke-width:1.9198;stroke-linecap:round;stroke-linejoin:round;stroke-miterlimit:10;}
	.st99{fill:none;stroke:#EA0045;stroke-width:1.8057;stroke-linecap:round;stroke-linejoin:round;stroke-miterlimit:10;}
	.st100{fill:none;stroke:#EA0045;stroke-width:2.2836;stroke-linecap:round;stroke-linejoin:round;stroke-miterlimit:10;}
	.st101{fill:none;stroke:#E2165A;stroke-width:3.734;stroke-linecap:round;stroke-linejoin:round;stroke-miterlimit:10;}
	.st102{fill:none;stroke:#E2165A;stroke-width:4.3469;stroke-linecap:round;stroke-linejoin:round;stroke-miterlimit:10;}
	.st103{fill:none;stroke:#000000;stroke-width:4.2638;stroke-miterlimit:10;}
	.st104{fill:none;stroke:#571833;stroke-width:4.3412;stroke-miterlimit:10;}
	.st105{fill:#FFFFFF;stroke:#571833;stroke-width:4.3412;stroke-miterlimit:10;}
	.st106{fill:none;stroke:#571833;stroke-width:4.3957;stroke-linecap:round;stroke-linejoin:round;stroke-miterlimit:10;}
	.st107{fill:none;stroke:#FFBC1A;stroke-width:3.655;stroke-linecap:round;stroke-linejoin:round;stroke-miterlimit:10;}
	.st108{fill:none;stroke:#FFBC1A;stroke-width:3.4496;stroke-linecap:round;stroke-linejoin:round;stroke-miterlimit:10;}
	.st109{fill:none;stroke:#000000;stroke-width:4.1579;stroke-miterlimit:10;}
	.st110{font-family:'Oz-Bold';}
	.st111{font-size:84.3355px;}
	.st112{fill:none;stroke:#000000;stroke-width:4.3469;stroke-miterlimit:10;}
	.st113{fill:#FFFFFF;stroke:#000000;stroke-width:2.1734;stroke-miterlimit:10;}
	.st114{fill:none;stroke:#571833;stroke-width:4.3469;stroke-linecap:round;stroke-linejoin:round;stroke-miterlimit:10;}
	.st115{fill:none;stroke:#571833;stroke-width:4.3469;stroke-linecap:round;stroke-miterlimit:10;}
	.st116{fill:none;stroke:#571833;stroke-width:4.3469;stroke-miterlimit:10;}
	.st117{fill:#FFFFFF;stroke:#571833;stroke-width:4.3469;stroke-miterlimit:10;}
	.st118{fill:#FFFFFF;stroke:#571833;stroke-width:2.1734;stroke-linecap:round;stroke-miterlimit:10;}
	.st119{fill:none;stroke:#571833;stroke-width:3.2602;stroke-linecap:round;stroke-miterlimit:10;}
	.st120{fill:none;stroke:#FFBC1A;stroke-width:6.024;stroke-linecap:round;stroke-linejoin:round;stroke-miterlimit:10;}
	.st121{fill:none;stroke:#FFBC1A;stroke-width:3.5192;stroke-linecap:round;stroke-linejoin:round;stroke-miterlimit:10;}
	.st122{fill:none;stroke:#EA0045;stroke-width:2.531;stroke-linecap:round;stroke-linejoin:round;stroke-miterlimit:10;}
	.st123{fill:none;stroke:#E2165A;stroke-width:2.4189;stroke-linecap:round;stroke-linejoin:round;stroke-miterlimit:10;}
	.st124{fill:none;stroke:#E2165A;stroke-width:2.8159;stroke-linecap:round;stroke-linejoin:round;stroke-miterlimit:10;}
	.st125{fill:none;stroke:#E2165A;stroke-width:2.4718;stroke-linecap:round;stroke-linejoin:round;stroke-miterlimit:10;}
	.st126{fill:#FFFFFF;stroke:#571833;stroke-width:3;stroke-miterlimit:10;}
	.st127{fill:none;stroke:#571833;stroke-width:3.2586;stroke-miterlimit:10;}
	.st128{fill:none;stroke:#000000;stroke-width:2.8159;stroke-miterlimit:10;}
	.st129{fill:none;stroke:#571833;stroke-width:3.2586;stroke-linecap:round;stroke-linejoin:round;stroke-miterlimit:10;}
	.st130{fill:#FFFFFF;stroke:#FFBC1A;stroke-width:2.4804;stroke-linecap:round;stroke-linejoin:round;stroke-miterlimit:10;}
	.st131{fill:none;stroke:#571833;stroke-width:2.9938;stroke-linecap:round;stroke-linejoin:round;stroke-miterlimit:10;}
	.st132{fill:#FFFFFF;stroke:#571833;stroke-width:2.9938;stroke-linecap:round;stroke-linejoin:round;stroke-miterlimit:10;}
	.st133{fill:none;stroke:#571833;stroke-width:3.6163;stroke-linecap:round;stroke-linejoin:round;stroke-miterlimit:10;}
	.st134{fill:#FFFFFF;stroke:#571833;stroke-width:2.0812;stroke-linecap:round;stroke-linejoin:round;stroke-miterlimit:10;}
	.st135{fill:none;stroke:#571833;stroke-width:2.0812;stroke-linecap:round;stroke-linejoin:round;stroke-miterlimit:10;}
	.st136{fill:none;stroke:#571833;stroke-width:4.7006;stroke-miterlimit:10;}
	.st137{fill:none;stroke:#E2165A;stroke-width:3.4893;stroke-linecap:round;stroke-linejoin:round;stroke-miterlimit:10;}
	.st138{fill:none;stroke:#E2165A;stroke-width:4.062;stroke-linecap:round;stroke-linejoin:round;stroke-miterlimit:10;}
	.st139{fill:none;stroke:#E2165A;stroke-width:3.5656;stroke-linecap:round;stroke-linejoin:round;stroke-miterlimit:10;}
	.st140{fill:none;stroke:#000000;stroke-width:4.062;stroke-miterlimit:10;}
	.st141{fill:#FFFFFF;stroke:#571833;stroke-width:3.0022;stroke-linecap:round;stroke-linejoin:round;stroke-miterlimit:10;}
	.st142{fill:none;stroke:#FFBC1A;stroke-width:3.4159;stroke-linecap:round;stroke-linejoin:round;stroke-miterlimit:10;}
	.st143{fill:none;stroke:#EA0045;stroke-width:2.4784;stroke-linecap:round;stroke-linejoin:round;stroke-miterlimit:10;}
	
		.st144{fill:none;stroke:#EA0045;stroke-width:2.4784;stroke-linecap:round;stroke-linejoin:round;stroke-miterlimit:10;stroke-dasharray:6.1961,6.1961;}
	.st145{fill:none;stroke:#FFFFFF;stroke-width:1.6;stroke-miterlimit:10;}
</style>
<path class="st1" d="M65.15,109.72V32.03c0-6.49,5.07-11.76,11.33-11.76h53.16c6.26,0,11.33,5.26,11.33,11.76v119.42
	c0,6.49-5.07,11.76-11.33,11.76H76.48c-2.35,0-9.25-0.39-11.06-1.66"/>
<path class="st101" d="M7.64,101.76c0.28-3.06,0.75-6.06,1.38-9"/>
<path class="st101" d="M12.63,136.94c-2.74-6.94-4.49-14.37-5.09-22.14c-0.04-0.54-0.08-1.07-0.11-1.61"/>
<path class="st102" d="M148.6,181.69c-3.08,2.2-6.31,4.21-9.67,6.01"/>
<path class="st102" d="M167.36,163.64c-2.03,2.63-4.21,5.14-6.52,7.52"/>
<path class="st102" d="M185.87,114.25c-0.85,15.27-5.54,29.51-13.14,41.77"/>
<path class="st102" d="M184.75,94.24c0.47,2.8,0.82,5.64,1.03,8.51"/>
<path class="st102" d="M171.21,60.09c5.04,7.59,8.94,16,11.47,24.98"/>
<path class="st102" d="M141.7,32.32c4.49,2.62,8.74,5.62,12.69,8.96c2.99,2.53,6.33,5.85,8.95,8.74"/>
<rect x="-31.15" y="3.14" class="st37" width="101.68" height="74.67"/>
<text transform="matrix(1 0 0 1 6.2876 62.2631)" class="st69 st110 st111">1</text>
<path class="st113" d="M140.83,96.01l-6.7,0.92c-0.48,0.07-0.91-0.27-0.98-0.74l-0.92-6.7c-0.07-0.48,0.27-0.91,0.74-0.98l6.7-0.92
	c0.48-0.07,0.91,0.27,0.98,0.74l0.92,6.7C141.64,95.51,141.3,95.95,140.83,96.01z"/>
<path class="st113" d="M140.14,116.87l-6.7,0.92c-0.48,0.07-0.91-0.27-0.98-0.74l-0.92-6.7c-0.07-0.48,0.27-0.91,0.74-0.98l6.7-0.92
	c0.48-0.07,0.91,0.27,0.98,0.74l0.92,6.7C140.95,116.37,140.62,116.81,140.14,116.87z"/>
<path class="st114" d="M35.07,173.16V85.15c0,0,0.48-4.55,5.26-3.83c4.79,0.72,19.62,6.46,19.62,21.53s0,32.3,0,32.3"/>
<path class="st115" d="M55.4,130.85c0,0,17.94,12.44,8.13,38.28"/>
<path class="st116" d="M35.07,100.94h12.44c0,0-0.96-13.4-12.44-13.4"/>
<line class="st115" x1="35.07" y1="112.42" x2="44.88" y2="112.42"/>
<line class="st115" x1="35.07" y1="118.88" x2="41.29" y2="118.88"/>
<path class="st116" d="M141.69,55.4l16.54-4.95c5.32-1.59,10.92,1.43,12.51,6.74l0,0c1.59,5.32-1.43,10.92-6.74,12.51l-22.68,6.79"
	/>
<path class="st116" d="M60.04,108.12V27.49c0-6.74,5.46-12.2,12.2-12.2h57.25c6.74,0,12.2,5.46,12.2,12.2v123.94
	c0,6.74-5.46,12.2-12.2,12.2H72.24c-2.53,0-4.87-0.77-6.82-2.08"/>
<path class="st117" d="M134.28,147.27H68.16c-0.35,0-0.64-0.29-0.64-0.64V34.3c0-0.35,0.29-0.64,0.64-0.64h66.13
	c0.35,0,0.64,0.29,0.64,0.64v112.33C134.92,146.98,134.64,147.27,134.28,147.27z"/>
<path class="st117" d="M150.1,99.27l-15.23,2.09c-3.91,0.54-7.51-2.2-8.05-6.11l-0.4-2.9c-0.54-3.91,2.2-7.51,6.11-8.05l15.23-2.09
	c3.91-0.54,7.51,2.2,8.05,6.11l0.4,2.9C156.74,95.13,154.01,98.74,150.1,99.27z"/>
<path class="st117" d="M145.79,120.5l-10.93,1.5c-3.91,0.54-7.51-2.2-8.05-6.11l-0.4-2.9c-0.54-3.91,2.2-7.51,6.11-8.05l10.93-1.5
	c3.91-0.54,7.51,2.2,8.05,6.11l0.4,2.9C152.43,116.36,149.7,119.96,145.79,120.5z"/>
<path class="st117" d="M145.32,140.63l-10.45,1.44c-3.91,0.54-7.51-2.2-8.05-6.11l-0.4-2.9c-0.54-3.91,2.2-7.51,6.11-8.05
	l10.45-1.44c3.91-0.54,7.51,2.2,8.05,6.11l0.4,2.9C151.96,136.49,149.23,140.09,145.32,140.63z"/>
<circle class="st47" cx="90.99" cy="27.43" r="2.34"/>
<line class="st114" x1="96.95" y1="27.43" x2="113.08" y2="27.43"/>
<line class="st118" x1="101.26" y1="60.09" x2="101.26" y2="72.46"/>
<line class="st118" x1="101.26" y1="103.83" x2="101.26" y2="116.87"/>
<line class="st118" x1="88.65" y1="100.98" x2="81.16" y2="108.47"/>
<line class="st118" x1="114.8" y1="74.39" x2="121.14" y2="67.6"/>
<line class="st118" x1="121.14" y1="88.46" x2="124.24" y2="88.46"/>
<line class="st118" x1="83.81" y1="70.69" x2="81.16" y2="67.6"/>
<line class="st118" x1="82.48" y1="88.46" x2="75.7" y2="88.46"/>
<line class="st118" x1="113.19" y1="100.3" x2="122.69" y2="110.35"/>
<circle class="st47" cx="101.22" cy="156.01" r="3.59"/>
<path class="st119" d="M130.77,164.51c0,0-3.12,21.75-19.03,32.83"/>
<polyline class="st120" points="91.36,90.13 97.55,96.1 110.36,83.67 "/>
<path class="st102" d="M130.55,191.65c-10.36,4.23-21.71,6.56-33.59,6.56c-31.98,0-60.01-16.87-75.7-42.2"/>
</svg>
