<?xml version="1.0" encoding="utf-8"?>
<!-- Generator: Adobe Illustrator 23.0.4, SVG Export Plug-In . SVG Version: 6.00 Build 0)  -->
<svg version="1.1" id="Layer_1" xmlns="http://www.w3.org/2000/svg" xmlns:xlink="http://www.w3.org/1999/xlink" x="0px" y="0px"
	 viewBox="0 0 275.58 42.57" style="enable-background:new 0 0 275.58 42.57;" xml:space="preserve">
<style type="text/css">
	.st0{fill:#F1F1F1;}
	.st1{fill:#8ED3E3;}
	.st2{clip-path:url(#SVGID_2_);}
	.st3{clip-path:url(#SVGID_4_);}
	.st4{clip-path:url(#SVGID_8_);}
	.st5{clip-path:url(#SVGID_10_);}
	.st6{clip-path:url(#SVGID_14_);}
	.st7{clip-path:url(#SVGID_18_);}
	.st8{fill:#FFFFFF;}
	.st9{clip-path:url(#SVGID_22_);}
	.st10{clip-path:url(#SVGID_24_);}
	.st11{clip-path:url(#SVGID_28_);}
	.st12{clip-path:url(#SVGID_30_);}
	.st13{clip-path:url(#SVGID_34_);}
	.st14{clip-path:url(#SVGID_36_);}
	.st15{clip-path:url(#SVGID_40_);}
	.st16{fill:none;stroke:#FFFFFF;stroke-width:0.5761;}
	.st17{fill:#1D1D1B;}
	.st18{clip-path:url(#SVGID_44_);}
	.st19{filter:url(#Adobe_OpacityMaskFilter);}
	.st20{mask:url(#SVGID_47_);}
	.st21{opacity:0.75;clip-path:url(#SVGID_51_);fill:#1D1D1B;}
	.st22{clip-path:url(#SVGID_53_);fill:#C2C7CB;}
	.st23{clip-path:url(#SVGID_55_);}
	.st24{clip-path:url(#SVGID_57_);}
	.st25{fill:none;stroke:#B0B0B0;stroke-miterlimit:10;}
	.st26{clip-path:url(#SVGID_61_);fill:#FFBC1A;}
	.st27{clip-path:url(#SVGID_63_);fill:#E2175A;}
	.st28{clip-path:url(#SVGID_65_);fill:#571833;}
	.st29{clip-path:url(#SVGID_67_);fill:#8ED3E3;}
	.st30{clip-path:url(#SVGID_69_);}
	.st31{clip-path:url(#SVGID_73_);fill:#C2C7CB;}
	.st32{clip-path:url(#SVGID_73_);fill:#FFFFFF;}
	.st33{clip-path:url(#SVGID_75_);}
	.st34{clip-path:url(#SVGID_77_);}
	.st35{fill:#35D7B3;}
	.st36{clip-path:url(#SVGID_83_);}
	.st37{fill:none;}
	.st38{clip-path:url(#SVGID_91_);}
	.st39{clip-path:url(#SVGID_93_);}
	.st40{fill:#E2175A;}
	.st41{fill:none;stroke:#FFFFFF;stroke-width:0.3909;stroke-miterlimit:10;}
	.st42{fill:none;stroke:#E41D60;stroke-width:0.2982;stroke-miterlimit:10;}
	.st43{fill:#E41D60;}
	.st44{fill:#FFBC1A;}
	.st45{fill:#E41D60;stroke:#E41D60;stroke-width:0.5;stroke-miterlimit:10;}
	.st46{fill:none;stroke:#571833;stroke-width:2.531;stroke-linecap:round;stroke-linejoin:round;stroke-miterlimit:10;}
	.st47{fill:#571833;}
	.st48{fill:none;stroke:#EA0045;stroke-width:2;stroke-linecap:round;stroke-linejoin:round;stroke-miterlimit:10;}
	.st49{fill:#EA0045;}
	.st50{fill:none;stroke:#FFFFFF;stroke-width:4;stroke-linecap:round;stroke-miterlimit:10;}
	.st51{fill:none;stroke:#FFFFFF;stroke-width:2;stroke-linecap:round;stroke-miterlimit:10;}
	.st52{fill:#70BCA6;}
	.st53{fill:#262636;}
	.st54{fill:#621F87;}
	.st55{fill:#74C182;}
	.st56{fill:#D35A52;}
	.st57{fill:#E58457;}
	.st58{fill:#DCE6E5;}
	.st59{fill:#75D3B5;}
	.st60{fill:#5BA594;}
	.st61{fill:#C8D5D8;}
	.st62{fill:#506D79;}
	.st63{fill:#B7C4C6;}
	.st64{fill:#67BA9F;}
	.st65{fill:#4C6073;}
	.st66{fill:none;stroke:#575756;stroke-width:1.9577;stroke-linecap:round;stroke-linejoin:round;stroke-miterlimit:10;}
	.st67{fill:#EBEBEB;}
	.st68{fill:none;stroke:#B0B0B0;stroke-width:2;stroke-linecap:round;stroke-linejoin:round;stroke-miterlimit:10;}
	.st69{fill:#E2165A;}
	.st70{fill:none;stroke:#571833;stroke-width:2.5138;stroke-miterlimit:10;}
	.st71{fill:none;stroke:#E2165A;stroke-width:1.866;stroke-linecap:round;stroke-linejoin:round;stroke-miterlimit:10;}
	.st72{fill:none;stroke:#E2165A;stroke-width:2.1723;stroke-linecap:round;stroke-linejoin:round;stroke-miterlimit:10;}
	.st73{fill:none;stroke:#000000;stroke-width:2.1723;stroke-miterlimit:10;}
	.st74{fill:none;stroke:#E2165A;stroke-width:1.9068;stroke-linecap:round;stroke-linejoin:round;stroke-miterlimit:10;}
	.st75{clip-path:url(#SVGID_99_);}
	.st76{fill:#212121;}
	.st77{fill:none;stroke:#FFFFFF;stroke-miterlimit:10;}
	.st78{fill:#002F65;}
	.st79{fill:#48AA43;}
	.st80{fill:none;stroke:#E2165A;stroke-width:2.9789;stroke-linecap:round;stroke-linejoin:round;stroke-miterlimit:10;}
	.st81{fill:none;stroke:#E2165A;stroke-width:2.3368;stroke-linecap:round;stroke-linejoin:round;stroke-miterlimit:10;}
	.st82{fill:none;stroke:#E2165A;stroke-width:2.7204;stroke-linecap:round;stroke-linejoin:round;stroke-miterlimit:10;}
	.st83{fill:none;stroke:#E2165A;stroke-width:2.3879;stroke-linecap:round;stroke-linejoin:round;stroke-miterlimit:10;}
	.st84{fill:none;stroke:#E2165A;stroke-width:1.8421;stroke-linecap:round;stroke-linejoin:round;stroke-miterlimit:10;}
	.st85{fill:#FFFFFF;stroke:#571833;stroke-width:2.8983;stroke-miterlimit:10;}
	.st86{fill:none;stroke:#571833;stroke-width:3.1481;stroke-miterlimit:10;}
	.st87{fill:none;stroke:#000000;stroke-width:2.7204;stroke-miterlimit:10;}
	.st88{clip-path:url(#SVGID_103_);}
	.st89{clip-path:url(#SVGID_105_);}
	.st90{fill:#B2C9D9;}
	.st91{fill:#00417B;}
	.st92{fill:none;stroke:#EB0045;stroke-width:2;stroke-linecap:round;stroke-linejoin:round;stroke-miterlimit:10;}
	.st93{fill:none;stroke:#FFFFFF;stroke-width:4;stroke-linecap:round;stroke-linejoin:round;stroke-miterlimit:10;}
	.st94{fill:#5CB2B2;}
	.st95{fill:none;stroke:#FFFFFF;stroke-width:2.2323;stroke-linecap:round;stroke-miterlimit:10;}
	.st96{fill:none;stroke:#EA0045;stroke-width:2;stroke-miterlimit:10;}
	.st97{fill:none;stroke:#EA0045;stroke-width:2.3277;stroke-linecap:round;stroke-linejoin:round;stroke-miterlimit:10;}
	.st98{fill:none;stroke:#EA0045;stroke-width:1.9198;stroke-linecap:round;stroke-linejoin:round;stroke-miterlimit:10;}
	.st99{fill:none;stroke:#EA0045;stroke-width:1.8057;stroke-linecap:round;stroke-linejoin:round;stroke-miterlimit:10;}
	.st100{fill:none;stroke:#EA0045;stroke-width:2.2836;stroke-linecap:round;stroke-linejoin:round;stroke-miterlimit:10;}
	.st101{fill:none;stroke:#E2165A;stroke-width:3.734;stroke-linecap:round;stroke-linejoin:round;stroke-miterlimit:10;}
	.st102{fill:none;stroke:#E2165A;stroke-width:4.3469;stroke-linecap:round;stroke-linejoin:round;stroke-miterlimit:10;}
	.st103{fill:none;stroke:#000000;stroke-width:4.2638;stroke-miterlimit:10;}
	.st104{fill:none;stroke:#571833;stroke-width:4.3412;stroke-miterlimit:10;}
	.st105{fill:#FFFFFF;stroke:#571833;stroke-width:4.3412;stroke-miterlimit:10;}
	.st106{fill:none;stroke:#571833;stroke-width:4.3957;stroke-linecap:round;stroke-linejoin:round;stroke-miterlimit:10;}
	.st107{fill:none;stroke:#FFBC1A;stroke-width:3.655;stroke-linecap:round;stroke-linejoin:round;stroke-miterlimit:10;}
	.st108{fill:none;stroke:#FFBC1A;stroke-width:3.4496;stroke-linecap:round;stroke-linejoin:round;stroke-miterlimit:10;}
	.st109{fill:none;stroke:#000000;stroke-width:4.1579;stroke-miterlimit:10;}
	.st110{fill:none;stroke:#000000;stroke-width:4.3469;stroke-miterlimit:10;}
	.st111{fill:#FFFFFF;stroke:#000000;stroke-width:2.1734;stroke-miterlimit:10;}
	.st112{fill:none;stroke:#571833;stroke-width:4.3469;stroke-linecap:round;stroke-linejoin:round;stroke-miterlimit:10;}
	.st113{fill:none;stroke:#571833;stroke-width:4.3469;stroke-linecap:round;stroke-miterlimit:10;}
	.st114{fill:none;stroke:#571833;stroke-width:4.3469;stroke-miterlimit:10;}
	.st115{fill:#FFFFFF;stroke:#571833;stroke-width:4.3469;stroke-miterlimit:10;}
	.st116{fill:#FFFFFF;stroke:#571833;stroke-width:2.1734;stroke-linecap:round;stroke-miterlimit:10;}
	.st117{fill:none;stroke:#571833;stroke-width:3.2602;stroke-linecap:round;stroke-miterlimit:10;}
	.st118{fill:none;stroke:#FFBC1A;stroke-width:6.024;stroke-linecap:round;stroke-linejoin:round;stroke-miterlimit:10;}
	.st119{fill:none;stroke:#FFBC1A;stroke-width:3.5192;stroke-linecap:round;stroke-linejoin:round;stroke-miterlimit:10;}
	.st120{fill:none;stroke:#EA0045;stroke-width:2.531;stroke-linecap:round;stroke-linejoin:round;stroke-miterlimit:10;}
	.st121{fill:none;stroke:#E2165A;stroke-width:2.4189;stroke-linecap:round;stroke-linejoin:round;stroke-miterlimit:10;}
	.st122{fill:none;stroke:#E2165A;stroke-width:2.8159;stroke-linecap:round;stroke-linejoin:round;stroke-miterlimit:10;}
	.st123{fill:none;stroke:#E2165A;stroke-width:2.4718;stroke-linecap:round;stroke-linejoin:round;stroke-miterlimit:10;}
	.st124{fill:#FFFFFF;stroke:#571833;stroke-width:3;stroke-miterlimit:10;}
	.st125{fill:none;stroke:#571833;stroke-width:3.2586;stroke-miterlimit:10;}
	.st126{fill:none;stroke:#000000;stroke-width:2.8159;stroke-miterlimit:10;}
	.st127{fill:none;stroke:#571833;stroke-width:3.2586;stroke-linecap:round;stroke-linejoin:round;stroke-miterlimit:10;}
	.st128{fill:#FFFFFF;stroke:#FFBC1A;stroke-width:2.4804;stroke-linecap:round;stroke-linejoin:round;stroke-miterlimit:10;}
	.st129{fill:none;stroke:#571833;stroke-width:2.9938;stroke-linecap:round;stroke-linejoin:round;stroke-miterlimit:10;}
	.st130{fill:#FFFFFF;stroke:#571833;stroke-width:2.9938;stroke-linecap:round;stroke-linejoin:round;stroke-miterlimit:10;}
	.st131{fill:none;stroke:#571833;stroke-width:3.6163;stroke-linecap:round;stroke-linejoin:round;stroke-miterlimit:10;}
	.st132{fill:#FFFFFF;stroke:#571833;stroke-width:2.0812;stroke-linecap:round;stroke-linejoin:round;stroke-miterlimit:10;}
	.st133{fill:none;stroke:#571833;stroke-width:2.0812;stroke-linecap:round;stroke-linejoin:round;stroke-miterlimit:10;}
	.st134{fill:none;stroke:#571833;stroke-width:4.7006;stroke-miterlimit:10;}
	.st135{fill:none;stroke:#E2165A;stroke-width:3.4893;stroke-linecap:round;stroke-linejoin:round;stroke-miterlimit:10;}
	.st136{fill:none;stroke:#E2165A;stroke-width:4.062;stroke-linecap:round;stroke-linejoin:round;stroke-miterlimit:10;}
	.st137{fill:none;stroke:#E2165A;stroke-width:3.5656;stroke-linecap:round;stroke-linejoin:round;stroke-miterlimit:10;}
	.st138{fill:none;stroke:#000000;stroke-width:4.062;stroke-miterlimit:10;}
	.st139{fill:#FFFFFF;stroke:#571833;stroke-width:3.0022;stroke-linecap:round;stroke-linejoin:round;stroke-miterlimit:10;}
	.st140{fill:none;stroke:#FFBC1A;stroke-width:3.4159;stroke-linecap:round;stroke-linejoin:round;stroke-miterlimit:10;}
	.st141{fill:none;stroke:#EA0045;stroke-width:2.4784;stroke-linecap:round;stroke-linejoin:round;stroke-miterlimit:10;}
	
		.st142{fill:none;stroke:#EA0045;stroke-width:2.4784;stroke-linecap:round;stroke-linejoin:round;stroke-miterlimit:10;stroke-dasharray:6.1961,6.1961;}
	.st143{fill-rule:evenodd;clip-rule:evenodd;fill:#1D1D1B;}
	.st144{fill-rule:evenodd;clip-rule:evenodd;fill:#FFFFFF;}
	.st145{clip-path:url(#SVGID_107_);}
	.st146{fill:#E41C29;}
	.st147{fill:#110F0D;}
	.st148{fill:#006F94;}
</style>
<g id="XMLID_1_">
	<polygon id="XMLID_3_" class="st148" points="12.57,11.46 3.38,11.46 3.38,2.88 31.24,2.88 31.24,11.46 22.05,11.46 22.05,37.99 
		12.57,37.99 	"/>
	<path id="XMLID_4_" class="st148" d="M32.33,2.88h9v9.48c1.23-1.42,3.18-2.13,7.39-2.13c6.49,0,7.82,4.31,7.82,9.9v17.86h-9.1
		V22.45c0-2.46-0.33-3.55-2.6-3.55c-2.99,0-3.46,1.09-3.46,3.65v15.45h-9.05V2.88L32.33,2.88z"/>
	<path id="XMLID_7_" class="st148" d="M69.85,38.32c4.83,0,8.29-0.85,11.18-2.42l-3.36-6.82c-1.85,0.8-3.7,1.56-7.34,1.56
		c-2.84,0-3.74-0.66-3.98-3.03h14.69c0.19-10.37,0.52-17.39-10.94-17.39c-9.52,0-12.46,5.21-12.46,14.07
		C57.63,33.3,59.85,38.32,69.85,38.32 M69.9,18.09c2.8,0,3.08,1.04,3.18,3.79H66.3C66.44,19.18,67.15,18.09,69.9,18.09"/>
	<path id="XMLID_10_" class="st148" d="M99.89,38.42c13.03,0,15.35-8.58,15.35-17.96c0-9.43-2.27-18-15.35-18
		c-13.08,0-15.4,8.58-15.4,18C84.49,29.84,86.81,38.42,99.89,38.42 M99.89,30.13c-5.16,0-5.88-3.55-5.88-9.33
		c0-5.73,0.71-9.29,5.88-9.29c5.12,0,5.83,3.55,5.83,9.29C105.72,26.57,105,30.13,99.89,30.13"/>
	<path id="XMLID_13_" class="st148" d="M116.66,37.71l6.54,0.61l1.42-2.08c1.71,1.42,2.61,2.08,7.72,2.08
		c8.2,0,9.57-6.39,9.57-14.02c0-7.48-1.04-14.07-9.14-14.07c-3.36,0-5.69,0.43-7.11,2.51V2.88h-9V37.71L116.66,37.71z M129.5,30.55
		c-3.22,0-3.79-1.56-3.79-5.83c0-4.36,0.71-6.07,3.79-6.07c2.84,0,3.27,1.61,3.27,6.07C132.77,29.18,132.2,30.55,129.5,30.55"/>
	<path id="XMLID_14_" class="st148" d="M141.72,35.95l3.32-6.63c2.08,1,5.35,1.9,8.43,1.9c1.47,0,1.99-0.52,1.99-1.33
		c0-1.18-1.52-1.28-5.07-2.32c-4.98-1.42-7.68-2.89-7.68-8.34c0-6.92,4.83-9,11.18-9c4.22,0,6.39,0.57,9.14,1.66l-3.41,7.2
		c-1.7-0.71-3.93-1.14-6.11-1.14c-1.85,0-2.18,0.43-2.18,1.18c0,1.09,1.52,1.19,4.31,1.94c5.59,1.52,8.24,3.18,8.24,8.77
		c0,5.97-4.4,8.48-10.47,8.48C149.16,38.32,144.9,37.75,141.72,35.95"/>
	<path id="XMLID_17_" class="st148" d="M176.83,38.32c4.83,0,8.29-0.85,11.18-2.42l-3.36-6.82c-1.85,0.8-3.7,1.56-7.34,1.56
		c-2.84,0-3.74-0.66-3.98-3.03h14.69c0.19-10.37,0.52-17.39-10.94-17.39c-9.53,0-12.46,5.21-12.46,14.07
		C164.61,33.3,166.83,38.32,176.83,38.32 M176.88,18.09c2.8,0,3.08,1.04,3.18,3.79h-6.78C173.42,19.18,174.13,18.09,176.88,18.09"/>
	<path id="XMLID_18_" class="st148" d="M189.57,11.27l7.2-0.57l0.76,2.37c1.33-1.56,3.18-2.56,7.63-2.56v8.57
		c-5.97,0-6.49,1.99-6.49,5.16v13.74h-9.1V11.27z"/>
	<polygon id="XMLID_19_" class="st148" points="205.39,10.75 214.92,10.75 219.04,26.67 223.21,10.75 232.16,10.75 223.87,38.27 
		213.64,38.27 	"/>
	<path id="XMLID_22_" class="st148" d="M242.82,38.32c4.83,0,8.29-0.85,11.18-2.42l-3.36-6.82c-1.85,0.8-3.7,1.56-7.34,1.56
		c-2.84,0-3.74-0.66-3.98-3.03H254c0.19-10.37,0.52-17.39-10.94-17.39c-9.52,0-12.46,5.21-12.46,14.07
		C230.6,33.3,232.83,38.32,242.82,38.32 M242.87,18.09c2.8,0,3.08,1.04,3.18,3.79h-6.78C239.41,19.18,240.12,18.09,242.87,18.09"/>
	<path id="XMLID_23_" class="st148" d="M255.33,11.27l7.2-0.57l0.76,2.37c1.33-1.56,3.18-2.56,7.63-2.56v8.57
		c-5.97,0-6.49,1.99-6.49,5.16v13.74h-9.1V11.27z"/>
</g>
</svg>
